<?xml version="1.0"?>
<!-- Created by MetaPost 1.9991 on 2017.02.13:1813 -->
<svg version="1.1" xmlns="http://www.w3.org/2000/svg" xmlns:xlink="http://www.w3.org/1999/xlink" width="1317.065308" height="2153.925049" viewBox="0 0 1317.065308 2153.925049">
<!-- Original BoundingBox: -1.000000 -479.205566 1316.065308 1674.719482 -->
  <g transform="matrix(0.707107,-0.707107,0.707107,0.707107,0.000000,0.000000)">
    <path d="M-574.333586 947.703920L-41.759049 1480.278457L-41.759049 1480.278457C18.680638 1419.838771,75.905209 1353.661944,100.489632 1271.664499C146.561324 1117.999695,73.767845 956.306916,-60.880150 865.382561C-150.801721 804.660802,-261.128473 780.651939,-366.988258 804.186610C-472.064092 827.547007,-559.842364 894.646635,-633.508247 973.064859C-708.153178 1052.525293,-770.210947 1145.461411,-789.071717 1252.899627C-811.803308 1382.387488,-769.002448 1514.272754,-677.788845 1609.094656C-564.039375 1727.343904,-389.242085 1770.542403,-249.859228 1690.069711" style="stroke:rgb(0.000000%,0.000000%,0.000000%); stroke-width: 159.402019;stroke-linecap: round;stroke-linejoin: round;stroke-miterlimit: 10.000000;fill: none;"></path>
  </g>
  <path d="M1.000000 2152.205566L1316.065308 2152.205566L1316.065308 0.280518L1.000000 0.280518Z" style="stroke:rgb(100.000000%,0.000000%,0.000000%); stroke-width: 2.000000;stroke-linecap: round;stroke-linejoin: round;stroke-miterlimit: 10.000000;fill: none;"></path>
</svg>
