<?xml version="1.0"?>
<!-- Created by MetaPost 1.9991 on 2017.02.13:1813 -->
<svg version="1.1" xmlns="http://www.w3.org/2000/svg" xmlns:xlink="http://www.w3.org/1999/xlink" width="1317.065308" height="2153.925049" viewBox="0 0 1317.065308 2153.925049">
<!-- Original BoundingBox: -1.000000 -479.205566 1316.065308 1674.719482 -->
  <g transform="matrix(0.707107,-0.707107,0.707107,0.707107,0.000000,0.000000)">
    <path d="M2.521550 928.784261C-90.621114 835.641598,-223.763863 795.221526,-353.673479 817.501389C-461.422446 835.980628,-556.217298 895.773910,-633.508247 973.064859C-710.799196 1050.355808,-770.592478 1145.150660,-789.071717 1252.899627C-811.351580 1382.809243,-770.931509 1515.951992,-677.788845 1609.094656C-584.646182 1702.237319,-451.503433 1742.657390,-321.593817 1720.377527C-213.844850 1701.898288,-119.049998 1642.105006,-41.759049 1564.814057C35.531900 1487.523108,95.325182 1392.728256,113.804421 1284.979289C136.084273 1155.069684,95.664213 1021.926924,2.521550 928.784261Z" style="stroke:rgb(0.000000%,0.000000%,0.000000%); stroke-width: 159.402019;stroke-linecap: round;stroke-linejoin: round;stroke-miterlimit: 10.000000;fill: none;"></path>
  </g>
  <path d="M1.000000 2152.205566L1316.065308 2152.205566L1316.065308 0.280518L1.000000 0.280518Z" style="stroke:rgb(100.000000%,0.000000%,0.000000%); stroke-width: 2.000000;stroke-linecap: round;stroke-linejoin: round;stroke-miterlimit: 10.000000;fill: none;"></path>
</svg>
