<?xml version="1.0"?>
<!-- Created by MetaPost 1.9991 on 2017.02.13:1813 -->
<svg version="1.1" xmlns="http://www.w3.org/2000/svg" xmlns:xlink="http://www.w3.org/1999/xlink" width="1317.065308" height="2153.925049" viewBox="0 0 1317.065308 2153.925049">
<!-- Original BoundingBox: -1.000000 -479.205566 1316.065308 1674.719482 -->
  <g transform="matrix(0.707107,-0.707107,0.707107,0.707107,0.000000,0.000000)">
    <path d="M-957.561379 1297.117991L-55.848316 395.404928" style="stroke:rgb(0.000000%,0.000000%,0.000000%); stroke-width: 159.402019;stroke-linecap: round;stroke-linejoin: round;stroke-miterlimit: 10.000000;fill: none;"></path>
  </g>
  <g transform="matrix(0.707107,-0.707107,0.707107,0.707107,0.000000,0.000000)">
    <path d="M-480.007563 819.564176L-184.132964 1115.438775C-104.110080 1195.461659,-35.572825 1291.376514,-29.084255 1404.201964C-23.789456 1496.269584,-61.758153 1584.813162,-127.035268 1650.090276C-192.312382 1715.367391,-280.855971 1753.336099,-372.923591 1748.041300C-485.749040 1741.552730,-581.663895 1673.015475,-661.686780 1592.992590L-957.561379 1297.117991" style="stroke:rgb(0.000000%,0.000000%,0.000000%); stroke-width: 159.402019;stroke-linecap: round;stroke-linejoin: round;stroke-miterlimit: 10.000000;fill: none;"></path>
  </g>
  <g transform="matrix(0.707107,-0.707107,0.707107,0.707107,0.000000,0.000000)">
    <path d="M-55.848316 395.404928L240.026283 691.279527C298.932391 750.185635,341.242303 826.091556,339.148496 909.165813C337.158819 988.108616,295.212442 1058.771367,239.285664 1114.698145C183.358876 1170.624933,112.696147 1212.571311,33.753322 1214.560987C-49.320935 1216.654794,-125.226857 1174.344883,-184.132964 1115.438775L-480.007563 819.564176" style="stroke:rgb(0.000000%,0.000000%,0.000000%); stroke-width: 159.402019;stroke-linecap: round;stroke-linejoin: round;stroke-miterlimit: 10.000000;fill: none;"></path>
  </g>
  <path d="M1.000000 2152.205566L1316.065308 2152.205566L1316.065308 0.280518L1.000000 0.280518Z" style="stroke:rgb(100.000000%,0.000000%,0.000000%); stroke-width: 2.000000;stroke-linecap: round;stroke-linejoin: round;stroke-miterlimit: 10.000000;fill: none;"></path>
</svg>
