<?xml version="1.0"?>
<!-- Created by MetaPost 1.9991 on 2017.02.13:1813 -->
<svg version="1.1" xmlns="http://www.w3.org/2000/svg" xmlns:xlink="http://www.w3.org/1999/xlink" width="1317.065308" height="2153.925049" viewBox="0 0 1317.065308 2153.925049">
<!-- Original BoundingBox: -1.000000 -479.205566 1316.065308 1674.719482 -->
  <g transform="matrix(0.707107,-0.707107,0.707107,0.707107,0.000000,0.000000)">
    <path d="M-701.135691 1099.868259L-730.723669 1129.456237C-779.122353 1177.854921,-817.395165 1236.718874,-829.099759 1304.170188C-842.954277 1384.011096,-817.927038 1465.584866,-762.324445 1524.559056C-702.429579 1588.085785,-614.971693 1617.560829,-528.578255 1604.691692C-460.279116 1594.517883,-399.141256 1558.694221,-350.313470 1509.866435L354.149861 805.403104" style="stroke:rgb(0.000000%,0.000000%,0.000000%); stroke-width: 159.402019;stroke-linecap: round;stroke-linejoin: round;stroke-miterlimit: 10.000000;fill: none;"></path>
  </g>
  <path d="M1.000000 2152.205566L1316.065308 2152.205566L1316.065308 0.280518L1.000000 0.280518Z" style="stroke:rgb(100.000000%,0.000000%,0.000000%); stroke-width: 2.000000;stroke-linecap: round;stroke-linejoin: round;stroke-miterlimit: 10.000000;fill: none;"></path>
</svg>
