<?xml version="1.0"?>
<!-- Created by MetaPost 1.9991 on 2017.02.13:1813 -->
<svg version="1.1" xmlns="http://www.w3.org/2000/svg" xmlns:xlink="http://www.w3.org/1999/xlink" width="1317.065308" height="2153.925049" viewBox="0 0 1317.065308 2153.925049">
<!-- Original BoundingBox: -1.000000 -479.205566 1316.065308 1674.719482 -->
  <g transform="matrix(0.707107,-0.707107,0.707107,0.707107,0.000000,0.000000)">
    <path d="M626.075113 981.515495L-29.075785 326.364598L-485.570947 782.859760L169.579950 1438.010658" style="stroke:rgb(0.000000%,0.000000%,0.000000%); stroke-width: 159.402019;stroke-linecap: round;stroke-linejoin: round;stroke-miterlimit: 10.000000;fill: none;"></path>
  </g>
  <g transform="matrix(0.707107,-0.707107,0.707107,0.707107,0.000000,0.000000)">
    <path d="M-696.909947 994.198759L-41.759049 1649.349657" style="stroke:rgb(0.000000%,0.000000%,0.000000%); stroke-width: 159.402019;stroke-linecap: round;stroke-linejoin: round;stroke-miterlimit: 10.000000;fill: none;"></path>
  </g>
  <g transform="matrix(0.707107,-0.707107,0.707107,0.707107,0.000000,0.000000)">
    <path d="M-802.579446 1733.885257L-379.901448 1311.207258" style="stroke:rgb(0.000000%,0.000000%,0.000000%); stroke-width: 159.402019;stroke-linecap: round;stroke-linejoin: round;stroke-miterlimit: 10.000000;fill: none;"></path>
  </g>
  <path d="M1.000000 2152.205566L1316.065308 2152.205566L1316.065308 0.280518L1.000000 0.280518Z" style="stroke:rgb(100.000000%,0.000000%,0.000000%); stroke-width: 2.000000;stroke-linecap: round;stroke-linejoin: round;stroke-miterlimit: 10.000000;fill: none;"></path>
</svg>
