<?xml version="1.0"?>
<!-- Created by MetaPost 1.9991 on 2017.02.13:1813 -->
<svg version="1.1" xmlns="http://www.w3.org/2000/svg" xmlns:xlink="http://www.w3.org/1999/xlink" width="1317.065308" height="2153.925049" viewBox="0 0 1317.065308 2153.925049">
<!-- Original BoundingBox: -1.000000 -479.205566 1316.065308 1674.719482 -->
  <g transform="matrix(0.707107,-0.707107,0.707107,0.707107,0.000000,0.000000)">
    <path d="M345.695783 796.949027L-98.116115 353.137128L-633.508247 888.529260L-189.696348 1332.341158Z" style="stroke:rgb(0.000000%,0.000000%,0.000000%); stroke-width: 159.402019;stroke-linecap: round;stroke-linejoin: round;stroke-miterlimit: 10.000000;fill: none;"></path>
  </g>
  <g transform="matrix(0.707107,-0.707107,0.707107,0.707107,0.000000,0.000000)">
    <path d="M-633.508247 888.529260L-189.696348 1332.341158" style="stroke:rgb(0.000000%,0.000000%,0.000000%); stroke-width: 159.402019;stroke-linecap: round;stroke-linejoin: round;stroke-miterlimit: 10.000000;fill: none;"></path>
  </g>
  <g transform="matrix(0.707107,-0.707107,0.707107,0.707107,0.000000,0.000000)">
    <path d="M626.075113 981.515495L-210.830248 1818.420856" style="stroke:rgb(0.000000%,0.000000%,0.000000%); stroke-width: 159.402019;stroke-linecap: round;stroke-linejoin: round;stroke-miterlimit: 10.000000;fill: none;"></path>
  </g>
  <g transform="matrix(0.707107,-0.707107,0.707107,0.707107,0.000000,0.000000)">
    <path d="M207.622438 1399.968170L-3.716562 1188.629171" style="stroke:rgb(0.000000%,0.000000%,0.000000%); stroke-width: 159.402019;stroke-linecap: round;stroke-linejoin: round;stroke-miterlimit: 10.000000;fill: none;"></path>
  </g>
  <g transform="matrix(0.707107,-0.707107,0.707107,0.707107,0.000000,0.000000)">
    <path d="M205.509770 979.402839L416.848770 1190.741838" style="stroke:rgb(0.000000%,0.000000%,0.000000%); stroke-width: 159.402019;stroke-linecap: round;stroke-linejoin: round;stroke-miterlimit: 10.000000;fill: none;"></path>
  </g>
  <g transform="matrix(0.707107,-0.707107,0.707107,0.707107,0.000000,0.000000)">
    <path d="M-718.043847 1142.136059L-1056.186245 1480.278457L-548.972647 1987.492056" style="stroke:rgb(0.000000%,0.000000%,0.000000%); stroke-width: 159.402019;stroke-linecap: round;stroke-linejoin: round;stroke-miterlimit: 10.000000;fill: none;"></path>
  </g>
  <path d="M1.000000 2152.205566L1316.065308 2152.205566L1316.065308 0.280518L1.000000 0.280518Z" style="stroke:rgb(100.000000%,0.000000%,0.000000%); stroke-width: 2.000000;stroke-linecap: round;stroke-linejoin: round;stroke-miterlimit: 10.000000;fill: none;"></path>
</svg>
