<?xml version="1.0" encoding="UTF-8" standalone="no"?>
<!-- Created by MetaPost 1.999 on 2016.08.30:1152 -->

<svg
   xmlns:dc="http://purl.org/dc/elements/1.1/"
   xmlns:cc="http://creativecommons.org/ns#"
   xmlns:rdf="http://www.w3.org/1999/02/22-rdf-syntax-ns#"
   xmlns:svg="http://www.w3.org/2000/svg"
   xmlns="http://www.w3.org/2000/svg"
   xmlns:sodipodi="http://sodipodi.sourceforge.net/DTD/sodipodi-0.dtd"
   xmlns:inkscape="http://www.inkscape.org/namespaces/inkscape"
   version="1.1"
   width="1316.065308"
   height="2152.925049"
   viewBox="0 0 1316.065308 2152.925049"
   id="svg2"
   inkscape:version="0.91 r13725"
   sodipodi:docname="b_n.svg">
  <metadata
     id="metadata14">
    <rdf:RDF>
      <cc:Work
         rdf:about="">
        <dc:format>image/svg+xml</dc:format>
        <dc:type
           rdf:resource="http://purl.org/dc/dcmitype/StillImage" />
      </cc:Work>
    </rdf:RDF>
  </metadata>
  <defs
     id="defs12" />
  <sodipodi:namedview
     pagecolor="#ffffff"
     bordercolor="#666666"
     borderopacity="1"
     objecttolerance="10"
     gridtolerance="10"
     guidetolerance="10"
     inkscape:pageopacity="0"
     inkscape:pageshadow="2"
     inkscape:window-width="1280"
     inkscape:window-height="757"
     id="namedview10"
     showgrid="false"
     inkscape:zoom="0.21923661"
     inkscape:cx="-203.71574"
     inkscape:cy="793.29281"
     inkscape:window-x="0"
     inkscape:window-y="17"
     inkscape:window-maximized="1"
     inkscape:current-layer="svg2" />
  <!-- Original BoundingBox: -0.500000 -478.705566 1315.565308 1674.219482 -->
  <path
     d="M268.990631 1614.224304L268.990631 657.813171"
     style="stroke:rgb(0.000000%,0.000000%,0.000000%); stroke-width: 119.551392;stroke-linecap: round;stroke-linejoin: round;stroke-miterlimit: 10.000000;fill: none;"
     id="path4" />
  <path
     d="m 1046.0747,1614.2243 0,-537.9813 C 1038.6245,866.96438 1043.456,651.64807 805.70068,654.41821 622.2344,648.46141 314.27999,795.69629 264.42935,1235.8879"
     style="fill:none;stroke:#000000;stroke-width:119.5513916;stroke-linecap:round;stroke-linejoin:round;stroke-miterlimit:10"
     id="path6"
     inkscape:connector-curvature="0"
     sodipodi:nodetypes="cccc" />
  <path
     d="M0.000000 2152.205566L1315.065308 2152.205566L1315.065308 0.280518L0.000000 0.280518Z"
     style="stroke:rgb(100.000000%,0.000000%,0.000000%); stroke-width: 1.000000;stroke-linecap: round;stroke-linejoin: round;stroke-miterlimit: 10.000000;fill: none;"
     id="path8" />
</svg>
