<?xml version="1.0" encoding="UTF-8" standalone="no"?>
<!-- Created by MetaPost 1.999 on 2016.08.29:1625 -->

<svg
   xmlns:dc="http://purl.org/dc/elements/1.1/"
   xmlns:cc="http://creativecommons.org/ns#"
   xmlns:rdf="http://www.w3.org/1999/02/22-rdf-syntax-ns#"
   xmlns:svg="http://www.w3.org/2000/svg"
   xmlns="http://www.w3.org/2000/svg"
   xmlns:sodipodi="http://sodipodi.sourceforge.net/DTD/sodipodi-0.dtd"
   xmlns:inkscape="http://www.inkscape.org/namespaces/inkscape"
   version="1.1"
   width="1316.065308"
   height="2152.925049"
   viewBox="0 0 1316.065308 2152.925049"
   id="svg2"
   inkscape:version="0.91 r13725"
   sodipodi:docname="b_c.svg">
  <metadata
     id="metadata10">
    <rdf:RDF>
      <cc:Work
         rdf:about="">
        <dc:format>image/svg+xml</dc:format>
        <dc:type
           rdf:resource="http://purl.org/dc/dcmitype/StillImage" />
      </cc:Work>
    </rdf:RDF>
  </metadata>
  <defs
     id="defs8" />
  <sodipodi:namedview
     pagecolor="#ffffff"
     bordercolor="#666666"
     borderopacity="1"
     objecttolerance="10"
     gridtolerance="10"
     guidetolerance="10"
     inkscape:pageopacity="0"
     inkscape:pageshadow="2"
     inkscape:window-width="640"
     inkscape:window-height="480"
     id="namedview6"
     showgrid="false"
     inkscape:zoom="0.10961831"
     inkscape:cx="658.03265"
     inkscape:cy="1076.4625"
     inkscape:window-x="0"
     inkscape:window-y="17"
     inkscape:window-maximized="0"
     inkscape:current-layer="svg2" />
  <!-- Original BoundingBox: -0.500000 -478.705566 1315.565308 1674.219482 -->
  <path
     style="color:#000000;font-style:normal;font-variant:normal;font-weight:normal;font-stretch:normal;font-size:medium;line-height:normal;font-family:sans-serif;text-indent:0;text-align:start;text-decoration:none;text-decoration-line:none;text-decoration-style:solid;text-decoration-color:#000000;letter-spacing:normal;word-spacing:normal;text-transform:none;direction:ltr;block-progression:tb;writing-mode:lr-tb;baseline-shift:baseline;text-anchor:start;white-space:normal;clip-rule:nonzero;display:inline;overflow:visible;visibility:visible;opacity:1;isolation:auto;mix-blend-mode:normal;color-interpolation:sRGB;color-interpolation-filters:linearRGB;solid-color:#000000;solid-opacity:1;fill:#000000;fill-opacity:1;fill-rule:nonzero;stroke:none;stroke-width:119.5513916;stroke-linecap:round;stroke-linejoin:round;stroke-miterlimit:10;stroke-dasharray:none;stroke-dashoffset:0;stroke-opacity:1;color-rendering:auto;image-rendering:auto;shape-rendering:auto;text-rendering:auto;enable-background:accumulate"
     d="M 672.71094 580.57422 C 666.75759 580.59982 660.78996 580.74856 654.80859 581.02148 C 509.8694 587.63489 379.53047 666.42054 300.66602 786.1582 C 230.49908 892.69067 209.21484 1017.3106 209.21484 1136.0195 C 209.21484 1254.7284 230.49908 1379.3484 300.66602 1485.8809 C 379.53048 1605.6185 509.8694 1684.4042 654.80859 1691.0176 C 846.21236 1699.7511 1025.0852 1580.9182 1075.1211 1394.1816 A 59.781673 59.781673 0 1 0 959.64453 1363.2402 C 924.77556 1493.3729 799.44078 1577.9406 660.25781 1571.5898 C 555.29142 1566.8004 459.39994 1509.5353 400.50781 1420.1211 C 347.99167 1340.3873 328.76563 1240.2459 328.76562 1136.0195 C 328.76562 1031.7932 347.99167 931.64979 400.50781 851.91602 C 459.39992 762.50179 555.29142 705.23676 660.25781 700.44727 C 799.44078 694.09651 924.77556 778.66417 959.64453 908.79688 A 59.781673 59.781673 0 1 0 1075.1211 877.85547 C 1026.6488 696.95443 857.26465 579.78085 672.71094 580.57422 z "
     id="path4" />
</svg>
