<?xml version="1.0" encoding="UTF-8" standalone="no"?>
<!-- Created by MetaPost 1.999 on 2016.08.29:1625 -->

<svg
   xmlns:dc="http://purl.org/dc/elements/1.1/"
   xmlns:cc="http://creativecommons.org/ns#"
   xmlns:rdf="http://www.w3.org/1999/02/22-rdf-syntax-ns#"
   xmlns:svg="http://www.w3.org/2000/svg"
   xmlns="http://www.w3.org/2000/svg"
   xmlns:sodipodi="http://sodipodi.sourceforge.net/DTD/sodipodi-0.dtd"
   xmlns:inkscape="http://www.inkscape.org/namespaces/inkscape"
   version="1.1"
   width="1316.065308"
   height="2152.925049"
   viewBox="0 0 1316.065308 2152.925049"
   id="svg2"
   inkscape:version="0.91 r13725"
   sodipodi:docname="b_e.svg">
  <metadata
     id="metadata10">
    <rdf:RDF>
      <cc:Work
         rdf:about="">
        <dc:format>image/svg+xml</dc:format>
        <dc:type
           rdf:resource="http://purl.org/dc/dcmitype/StillImage" />
      </cc:Work>
    </rdf:RDF>
  </metadata>
  <defs
     id="defs8" />
  <sodipodi:namedview
     pagecolor="#ffffff"
     bordercolor="#666666"
     borderopacity="1"
     objecttolerance="10"
     gridtolerance="10"
     guidetolerance="10"
     inkscape:pageopacity="0"
     inkscape:pageshadow="2"
     inkscape:window-width="640"
     inkscape:window-height="480"
     id="namedview6"
     showgrid="false"
     inkscape:zoom="0.10961831"
     inkscape:cx="658.03265"
     inkscape:cy="1076.4625"
     inkscape:window-x="0"
     inkscape:window-y="17"
     inkscape:window-maximized="0"
     inkscape:current-layer="svg2" />
  <!-- Original BoundingBox: -0.500000 -478.705566 1315.565308 1674.219482 -->
  <path
     style="color:#000000;font-style:normal;font-variant:normal;font-weight:normal;font-stretch:normal;font-size:medium;line-height:normal;font-family:sans-serif;text-indent:0;text-align:start;text-decoration:none;text-decoration-line:none;text-decoration-style:solid;text-decoration-color:#000000;letter-spacing:normal;word-spacing:normal;text-transform:none;direction:ltr;block-progression:tb;writing-mode:lr-tb;baseline-shift:baseline;text-anchor:start;white-space:normal;clip-rule:nonzero;display:inline;overflow:visible;visibility:visible;opacity:1;isolation:auto;mix-blend-mode:normal;color-interpolation:sRGB;color-interpolation-filters:linearRGB;solid-color:#000000;solid-opacity:1;fill:#000000;fill-opacity:1;fill-rule:nonzero;stroke:none;stroke-width:119.5513916;stroke-linecap:round;stroke-linejoin:round;stroke-miterlimit:10;stroke-dasharray:none;stroke-dashoffset:0;stroke-opacity:1;color-rendering:auto;image-rendering:auto;shape-rendering:auto;text-rendering:auto;enable-background:accumulate"
     d="M 648.45312 574.10156 C 620.00073 574.08446 591.34454 576.68018 562.91992 581.96484 C 437.81281 605.22456 326.71569 678.68772 258.73047 787.32617 C 190.99352 895.56792 176.00927 1020.6798 179.35156 1137.7246 C 182.732 1256.1056 205.23101 1380.8043 277.625 1486.7285 C 363.31859 1612.1122 504.56529 1688.5099 656.52539 1691.0703 C 845.90651 1694.2613 1025.2559 1580.2809 1075.1211 1394.1816 A 59.781673 59.781673 0 1 0 959.64453 1363.2402 C 925.2432 1491.6277 799.32225 1573.9073 658.53906 1571.5352 C 545.34701 1569.6279 440.27925 1512.8453 376.32617 1419.2715 C 322.62377 1340.6961 302.12161 1240.7785 298.93945 1136.0195 L 1016.1875 1136.0195 A 59.781673 59.781673 0 0 0 1075.9629 1076.2422 C 1075.9629 985.77769 1072.389 884.84652 1023.4844 791.33594 C 949.83148 650.50421 802.09607 574.19395 648.45312 574.10156 z M 651.32227 693.55078 C 654.46032 693.57133 657.59113 693.63436 660.71484 693.74023 C 769.00368 697.41067 868.09624 752.1874 917.54492 846.73828 C 942.87463 895.17126 952.14138 953.27273 955.125 1016.4668 L 304.28906 1016.4668 C 312.36947 956.01483 329.56876 899.48984 360.07227 850.74609 C 409.83842 771.22119 491.58852 716.8287 584.77344 699.50391 C 607.06139 695.36016 629.35587 693.40697 651.32227 693.55078 z "
     id="path4" />
</svg>
