<?xml version="1.0" encoding="UTF-8" standalone="no"?>
<!-- Created by MetaPost 1.999 on 2016.08.29:1625 -->

<svg
   xmlns:dc="http://purl.org/dc/elements/1.1/"
   xmlns:cc="http://creativecommons.org/ns#"
   xmlns:rdf="http://www.w3.org/1999/02/22-rdf-syntax-ns#"
   xmlns:svg="http://www.w3.org/2000/svg"
   xmlns="http://www.w3.org/2000/svg"
   xmlns:sodipodi="http://sodipodi.sourceforge.net/DTD/sodipodi-0.dtd"
   xmlns:inkscape="http://www.inkscape.org/namespaces/inkscape"
   version="1.1"
   width="1316.065308"
   height="2152.925049"
   viewBox="0 0 1316.065308 2152.925049"
   id="svg2"
   inkscape:version="0.91 r13725"
   sodipodi:docname="b_q.svg">
  <metadata
     id="metadata12">
    <rdf:RDF>
      <cc:Work
         rdf:about="">
        <dc:format>image/svg+xml</dc:format>
        <dc:type
           rdf:resource="http://purl.org/dc/dcmitype/StillImage" />
      </cc:Work>
    </rdf:RDF>
  </metadata>
  <defs
     id="defs10" />
  <sodipodi:namedview
     pagecolor="#ffffff"
     bordercolor="#666666"
     borderopacity="1"
     objecttolerance="10"
     gridtolerance="10"
     guidetolerance="10"
     inkscape:pageopacity="0"
     inkscape:pageshadow="2"
     inkscape:window-width="640"
     inkscape:window-height="480"
     id="namedview8"
     showgrid="false"
     inkscape:zoom="0.10961831"
     inkscape:cx="658.03265"
     inkscape:cy="1076.4625"
     inkscape:window-x="0"
     inkscape:window-y="17"
     inkscape:window-maximized="0"
     inkscape:current-layer="svg2" />
  <!-- Original BoundingBox: -0.500000 -478.705566 1315.565308 1674.219482 -->
  <path
     style="color:#000000;font-style:normal;font-variant:normal;font-weight:normal;font-stretch:normal;font-size:medium;line-height:normal;font-family:sans-serif;text-indent:0;text-align:start;text-decoration:none;text-decoration-line:none;text-decoration-style:solid;text-decoration-color:#000000;letter-spacing:normal;word-spacing:normal;text-transform:none;direction:ltr;block-progression:tb;writing-mode:lr-tb;baseline-shift:baseline;text-anchor:start;white-space:normal;clip-rule:nonzero;display:inline;overflow:visible;visibility:visible;opacity:1;isolation:auto;mix-blend-mode:normal;color-interpolation:sRGB;color-interpolation-filters:linearRGB;solid-color:#000000;solid-opacity:1;fill:#000000;fill-opacity:1;fill-rule:nonzero;stroke:none;stroke-width:119.5513916;stroke-linecap:round;stroke-linejoin:round;stroke-miterlimit:10;stroke-dasharray:none;stroke-dashoffset:0;stroke-opacity:1;color-rendering:auto;image-rendering:auto;shape-rendering:auto;text-rendering:auto;enable-background:accumulate"
     d="M 657.5332 580.95898 C 504.14063 580.95898 363.65718 660.41744 277.75 785.12695 C 205.26482 890.35205 179.32617 1015.228 179.32617 1136.0195 C 179.32617 1256.811 205.26482 1381.6851 277.75 1486.9102 C 363.65717 1611.6197 504.14063 1691.0781 657.5332 1691.0781 C 798.93348 1691.0781 929.36492 1623.559 1016.1875 1515.3145 L 1016.1875 2092.4297 A 59.781673 59.781673 0 1 0 1135.7383 2092.4297 L 1135.7383 1136.0195 L 1135.7383 657.8125 A 59.781673 59.781673 0 0 0 1075.0625 597.19336 A 59.781673 59.781673 0 0 0 1016.1875 657.8125 L 1016.1875 756.72266 C 929.36492 648.47805 798.93348 580.95898 657.5332 580.95898 z M 657.5332 700.50977 C 769.58326 700.50977 873.96919 758.74198 938.86328 852.94727 C 993.69683 932.54789 1016.1875 1032.4296 1016.1875 1136.0195 C 1016.1875 1239.6095 993.69683 1339.4892 938.86328 1419.0898 C 873.96919 1513.2951 769.58326 1571.5273 657.5332 1571.5273 C 545.48314 1571.5273 441.0972 1513.2951 376.20312 1419.0898 C 321.36958 1339.4892 298.87891 1239.6095 298.87891 1136.0195 C 298.87891 1032.4296 321.36959 932.54789 376.20312 852.94727 C 441.09722 758.74198 545.48314 700.50977 657.5332 700.50977 z "
     id="path4" />
</svg>
