<?xml version="1.0" encoding="UTF-8" standalone="no"?>
<!-- Created by MetaPost 1.999 on 2016.08.29:1625 -->

<svg
   xmlns:dc="http://purl.org/dc/elements/1.1/"
   xmlns:cc="http://creativecommons.org/ns#"
   xmlns:rdf="http://www.w3.org/1999/02/22-rdf-syntax-ns#"
   xmlns:svg="http://www.w3.org/2000/svg"
   xmlns="http://www.w3.org/2000/svg"
   xmlns:sodipodi="http://sodipodi.sourceforge.net/DTD/sodipodi-0.dtd"
   xmlns:inkscape="http://www.inkscape.org/namespaces/inkscape"
   version="1.1"
   width="1316.065308"
   height="2152.925049"
   viewBox="0 0 1316.065308 2152.925049"
   id="svg2"
   inkscape:version="0.91 r13725"
   sodipodi:docname="c_R.svg">
  <metadata
     id="metadata12">
    <rdf:RDF>
      <cc:Work
         rdf:about="">
        <dc:format>image/svg+xml</dc:format>
        <dc:type
           rdf:resource="http://purl.org/dc/dcmitype/StillImage" />
      </cc:Work>
    </rdf:RDF>
  </metadata>
  <defs
     id="defs10" />
  <sodipodi:namedview
     pagecolor="#ffffff"
     bordercolor="#666666"
     borderopacity="1"
     objecttolerance="10"
     gridtolerance="10"
     guidetolerance="10"
     inkscape:pageopacity="0"
     inkscape:pageshadow="2"
     inkscape:window-width="640"
     inkscape:window-height="480"
     id="namedview8"
     showgrid="false"
     inkscape:zoom="0.10961831"
     inkscape:cx="658.03265"
     inkscape:cy="1076.4625"
     inkscape:window-x="0"
     inkscape:window-y="17"
     inkscape:window-maximized="0"
     inkscape:current-layer="svg2" />
  <!-- Original BoundingBox: -0.500000 -478.705566 1315.565308 1674.219482 -->
  <path
     style="color:#000000;font-style:normal;font-variant:normal;font-weight:normal;font-stretch:normal;font-size:medium;line-height:normal;font-family:sans-serif;text-indent:0;text-align:start;text-decoration:none;text-decoration-line:none;text-decoration-style:solid;text-decoration-color:#000000;letter-spacing:normal;word-spacing:normal;text-transform:none;direction:ltr;block-progression:tb;writing-mode:lr-tb;baseline-shift:baseline;text-anchor:start;white-space:normal;clip-rule:nonzero;display:inline;overflow:visible;visibility:visible;opacity:1;isolation:auto;mix-blend-mode:normal;color-interpolation:sRGB;color-interpolation-filters:linearRGB;solid-color:#000000;solid-opacity:1;fill:#000000;fill-opacity:1;fill-rule:nonzero;stroke:none;stroke-width:119.5513916;stroke-linecap:round;stroke-linejoin:round;stroke-miterlimit:10;stroke-dasharray:none;stroke-dashoffset:0;stroke-opacity:1;color-rendering:auto;image-rendering:auto;shape-rendering:auto;text-rendering:auto;enable-background:accumulate"
     d="M 322.78906 239.38281 A 59.781673 59.781673 0 0 0 263.01172 299.1582 L 263.01172 969.59961 A 59.781673 59.781673 0 0 0 263.01172 988.93555 L 263.01172 1614.2246 A 59.781673 59.781673 0 1 0 382.56445 1614.2246 L 382.56445 1039.1191 L 597.75781 1039.1191 C 606.1095 1039.1191 614.52226 1038.9756 622.9707 1038.709 L 976.51953 1644.3594 A 59.781673 59.781673 0 1 0 1079.7656 1584.0898 L 751.5918 1021.9043 C 816.27832 1005.8427 878.36738 976.75932 930.30664 927.48047 C 1010.6716 851.23187 1046.0742 744.25224 1046.0742 639.25 C 1046.0742 534.24776 1010.6716 427.26813 930.30664 351.01953 C 837.50148 262.96799 712.29529 239.38281 597.75781 239.38281 L 322.78906 239.38281 z M 382.56445 358.93555 L 597.75781 358.93555 C 695.55847 358.93555 787.09157 379.93906 848.02148 437.74805 C 900.37395 487.41895 926.52344 561.02214 926.52344 639.25 C 926.52344 717.47786 900.37395 791.08301 848.02148 840.75391 C 787.09157 898.5629 695.55847 919.56641 597.75781 919.56641 L 382.56445 919.56641 L 382.56445 358.93555 z "
     id="path4" />
</svg>
