<?xml version="1.0" encoding="UTF-8" standalone="no"?>
<!-- Created by MetaPost 1.999 on 2016.08.29:1625 -->

<svg
   xmlns:dc="http://purl.org/dc/elements/1.1/"
   xmlns:cc="http://creativecommons.org/ns#"
   xmlns:rdf="http://www.w3.org/1999/02/22-rdf-syntax-ns#"
   xmlns:svg="http://www.w3.org/2000/svg"
   xmlns="http://www.w3.org/2000/svg"
   xmlns:sodipodi="http://sodipodi.sourceforge.net/DTD/sodipodi-0.dtd"
   xmlns:inkscape="http://www.inkscape.org/namespaces/inkscape"
   version="1.1"
   width="1316.065308"
   height="2152.925049"
   viewBox="0 0 1316.065308 2152.925049"
   id="svg2"
   inkscape:version="0.91 r13725"
   sodipodi:docname="n_0.svg">
  <metadata
     id="metadata10">
    <rdf:RDF>
      <cc:Work
         rdf:about="">
        <dc:format>image/svg+xml</dc:format>
        <dc:type
           rdf:resource="http://purl.org/dc/dcmitype/StillImage" />
      </cc:Work>
    </rdf:RDF>
  </metadata>
  <defs
     id="defs8" />
  <sodipodi:namedview
     pagecolor="#ffffff"
     bordercolor="#666666"
     borderopacity="1"
     objecttolerance="10"
     gridtolerance="10"
     guidetolerance="10"
     inkscape:pageopacity="0"
     inkscape:pageshadow="2"
     inkscape:window-width="640"
     inkscape:window-height="480"
     id="namedview6"
     showgrid="false"
     inkscape:zoom="0.10961831"
     inkscape:cx="658.03265"
     inkscape:cy="1076.4625"
     inkscape:window-x="0"
     inkscape:window-y="17"
     inkscape:window-maximized="0"
     inkscape:current-layer="svg2" />
  <!-- Original BoundingBox: -0.500000 -478.705566 1315.565308 1674.219482 -->
  <path
     style="color:#000000;font-style:normal;font-variant:normal;font-weight:normal;font-stretch:normal;font-size:medium;line-height:normal;font-family:sans-serif;text-indent:0;text-align:start;text-decoration:none;text-decoration-line:none;text-decoration-style:solid;text-decoration-color:#000000;letter-spacing:normal;word-spacing:normal;text-transform:none;direction:ltr;block-progression:tb;writing-mode:lr-tb;baseline-shift:baseline;text-anchor:start;white-space:normal;clip-rule:nonzero;display:inline;overflow:visible;visibility:visible;opacity:1;isolation:auto;mix-blend-mode:normal;color-interpolation:sRGB;color-interpolation-filters:linearRGB;solid-color:#000000;solid-opacity:1;fill:#000000;fill-opacity:1;fill-rule:nonzero;stroke:none;stroke-width:119.5513916;stroke-linecap:round;stroke-linejoin:round;stroke-miterlimit:10;stroke-dasharray:none;stroke-dashoffset:0;stroke-opacity:1;color-rendering:auto;image-rendering:auto;shape-rendering:auto;text-rendering:auto;enable-background:accumulate"
     d="M 657.5332 102.75391 C 582.2759 102.75391 497.12985 107.34081 418.94336 151.45703 C 307.72427 214.21167 254.96077 329.69773 225.39844 437.30664 C 183.29462 590.56732 179.32617 746.45972 179.32617 896.91602 C 179.32617 1047.3723 183.29462 1203.2647 225.39844 1356.5254 C 254.96077 1464.1343 307.72427 1579.6204 418.94336 1642.375 C 497.12985 1686.4912 582.2759 1691.0781 657.5332 1691.0781 C 732.79051 1691.0781 817.93656 1686.4912 896.12305 1642.375 C 1007.3421 1579.6204 1060.1037 1464.1343 1089.666 1356.5254 C 1131.7698 1203.2647 1135.7383 1047.3723 1135.7383 896.91602 C 1135.7383 746.45972 1131.7698 590.56732 1089.666 437.30664 C 1060.1037 329.69773 1007.3421 214.21167 896.12305 151.45703 C 817.93656 107.34081 732.79051 102.75391 657.5332 102.75391 z M 657.5332 222.30469 C 726.80983 222.30469 789.4938 228.56258 837.37305 255.57812 C 906.90585 294.81155 948.80172 375.84542 974.38672 468.97656 C 1011.4547 603.9064 1016.1875 748.78231 1016.1875 896.91602 C 1016.1875 1045.0497 1011.4547 1189.9256 974.38672 1324.8555 C 948.80172 1417.9866 906.90585 1499.0205 837.37305 1538.2539 C 789.4938 1565.2695 726.80983 1571.5273 657.5332 1571.5273 C 588.25657 1571.5273 525.57065 1565.2695 477.69141 1538.2539 C 408.1586 1499.0205 366.26469 1417.9866 340.67969 1324.8555 C 303.61172 1189.9256 298.87891 1045.0497 298.87891 896.91602 C 298.87891 748.78231 303.61172 603.9064 340.67969 468.97656 C 366.26469 375.84542 408.1586 294.81155 477.69141 255.57812 C 525.57065 228.56258 588.25657 222.30469 657.5332 222.30469 z "
     id="path4" />
</svg>
