<?xml version="1.0" encoding="UTF-8" standalone="no"?>
<!-- Created by MetaPost 1.999 on 2016.08.29:1625 -->

<svg
   xmlns:dc="http://purl.org/dc/elements/1.1/"
   xmlns:cc="http://creativecommons.org/ns#"
   xmlns:rdf="http://www.w3.org/1999/02/22-rdf-syntax-ns#"
   xmlns:svg="http://www.w3.org/2000/svg"
   xmlns="http://www.w3.org/2000/svg"
   xmlns:sodipodi="http://sodipodi.sourceforge.net/DTD/sodipodi-0.dtd"
   xmlns:inkscape="http://www.inkscape.org/namespaces/inkscape"
   version="1.1"
   width="1316.065308"
   height="2152.925049"
   viewBox="0 0 1316.065308 2152.925049"
   id="svg2"
   inkscape:version="0.91 r13725"
   sodipodi:docname="p_numbersign.svg">
  <metadata
     id="metadata16">
    <rdf:RDF>
      <cc:Work
         rdf:about="">
        <dc:format>image/svg+xml</dc:format>
        <dc:type
           rdf:resource="http://purl.org/dc/dcmitype/StillImage" />
      </cc:Work>
    </rdf:RDF>
  </metadata>
  <defs
     id="defs14" />
  <sodipodi:namedview
     pagecolor="#ffffff"
     bordercolor="#666666"
     borderopacity="1"
     objecttolerance="10"
     gridtolerance="10"
     guidetolerance="10"
     inkscape:pageopacity="0"
     inkscape:pageshadow="2"
     inkscape:window-width="640"
     inkscape:window-height="480"
     id="namedview12"
     showgrid="false"
     inkscape:zoom="0.10961831"
     inkscape:cx="658.03265"
     inkscape:cy="1076.4625"
     inkscape:window-x="0"
     inkscape:window-y="17"
     inkscape:window-maximized="0"
     inkscape:current-layer="svg2" />
  <!-- Original BoundingBox: -0.500000 -478.705566 1315.565308 1674.219482 -->
  <path
     style="color:#000000;font-style:normal;font-variant:normal;font-weight:normal;font-stretch:normal;font-size:medium;line-height:normal;font-family:sans-serif;text-indent:0;text-align:start;text-decoration:none;text-decoration-line:none;text-decoration-style:solid;text-decoration-color:#000000;letter-spacing:normal;word-spacing:normal;text-transform:none;direction:ltr;block-progression:tb;writing-mode:lr-tb;baseline-shift:baseline;text-anchor:start;white-space:normal;clip-rule:nonzero;display:inline;overflow:visible;visibility:visible;opacity:1;isolation:auto;mix-blend-mode:normal;color-interpolation:sRGB;color-interpolation-filters:linearRGB;solid-color:#000000;solid-opacity:1;fill:#000000;fill-opacity:1;fill-rule:nonzero;stroke:none;stroke-width:119.5513916;stroke-linecap:round;stroke-linejoin:round;stroke-miterlimit:10;stroke-dasharray:none;stroke-dashoffset:0;stroke-opacity:1;color-rendering:auto;image-rendering:auto;shape-rendering:auto;text-rendering:auto;enable-background:accumulate"
     d="M 598.55664 119.00586 A 59.781673 59.781673 0 0 0 539.49219 166.25586 L 440.54102 598.03711 L 268.99023 598.03711 A 59.781673 59.781673 0 1 0 268.99023 717.58789 L 413.14453 717.58789 L 330.95312 1076.2422 L 209.21484 1076.2422 A 59.781673 59.781673 0 1 0 209.21484 1195.7949 L 303.55469 1195.7949 L 210.72461 1600.8711 A 59.781673 59.781673 0 1 0 327.25586 1627.5762 L 426.20508 1195.7949 L 751.87305 1195.7949 L 659.04297 1600.8711 A 59.781673 59.781673 0 1 0 775.57422 1627.5762 L 874.52344 1195.7949 L 1046.0742 1195.7949 A 59.781673 59.781673 0 1 0 1046.0742 1076.2422 L 901.92188 1076.2422 L 984.11328 717.58789 L 1105.8496 717.58789 A 59.781673 59.781673 0 1 0 1105.8496 598.03711 L 1011.5098 598.03711 L 1104.3398 192.96094 A 59.781673 59.781673 0 0 0 1046.875 119.00586 A 59.781673 59.781673 0 0 0 987.80859 166.25586 L 888.85938 598.03711 L 563.19141 598.03711 L 656.02148 192.96094 A 59.781673 59.781673 0 0 0 598.55664 119.00586 z M 535.79492 717.58789 L 861.46094 717.58789 L 779.26953 1076.2422 L 453.60352 1076.2422 L 535.79492 717.58789 z "
     id="path4" />
</svg>
