<?xml version="1.0" standalone="no"?>
<!DOCTYPE svg PUBLIC "-//W3C//DTD SVG 1.1//EN" "http://www.w3.org/Graphics/SVG/1.1/DTD/svg11.dtd" >
<svg xmlns="http://www.w3.org/2000/svg" xmlns:xlink="http://www.w3.org/1999/xlink" version="1.1" viewBox="0 -200 1000 1000">
  <g transform="matrix(1 0 0 -1 0 800)">
   <path fill="currentColor"
d="M74 696h130c25 0 50 -8 68 -26l23 -23c3 -3 5 -5 7 -8c25 -32 18 -76 18 -116c0 -41 7 -84 -18 -117c-2 -2 -4 -5 -7 -7l-16 -17c9 -4 17 -10 25 -17l23 -24c2 -1 4 -3 5 -5c30 -35 25 -84 25 -130s5 -95 -25 -130c-1 -2 -3 -3 -5 -5l-23 -23c-26 -26 -64 -32 -100 -32
h-130l-24 23v334v299zM98 649v-252h106c19 0 39 4 55 15c20 31 14 72 14 111c0 38 6 79 -14 111c-16 10 -36 15 -55 15h-106zM98 350v-287h106c31 0 62 4 87 21c23 34 19 80 19 122c0 43 4 88 -19 122c-25 17 -56 22 -87 22h-106z" />
  </g>

</svg>
