StartFontMetrics 2.0
Comment Generated by FontForge 20160506
Comment Creation Date: Thu Oct 13 02:05:09 2016
FontName Ocr-Pbi-hovelbot-1-2
FullName Untitled1
FamilyName Ocr-Pbi
Weight Regular
Notice (Copyright (c) 2016, antoine)
ItalicAngle 0
IsFixedPitch true
UnderlinePosition -100
UnderlineThickness 50
Version 001.000
EncodingScheme ISOLatin1Encoding
FontBBox 46 9 361 703
CapHeight 696
StartCharMetrics 69
C 65 ; WX 407 ; N A ; B 46 15 361 696 ;
C 66 ; WX 407 ; N B ; B 50 15 358 696 ;
C 67 ; WX 407 ; N C ; B 71 9 347 702 ;
C 68 ; WX 407 ; N D ; B 80 15 344 697 ;
C 69 ; WX 407 ; N E ; B 80 15 350 696 ;
C 70 ; WX 407 ; N F ; B 80 15 339 696 ;
C 71 ; WX 407 ; N G ; B 56 10 346 703 ;
C 72 ; WX 407 ; N H ; B 68 15 339 696 ;
C 73 ; WX 407 ; N I ; B 87 15 320 696 ;
C 74 ; WX 407 ; N J ; B 63 10 278 696 ;
C 75 ; WX 407 ; N K ; B 59 15 357 696 ;
C 76 ; WX 407 ; N L ; B 68 15 357 696 ;
C 77 ; WX 407 ; N M ; B 50 15 357 696 ;
C 78 ; WX 407 ; N N ; B 59 15 348 696 ;
C 79 ; WX 407 ; N O ; B 52 10 356 701 ;
C 80 ; WX 407 ; N P ; B 68 15 357 696 ;
C 81 ; WX 407 ; N Q ; B 52 10 357 701 ;
C 82 ; WX 407 ; N R ; B 76 15 342 696 ;
C 83 ; WX 407 ; N S ; B 75 10 335 702 ;
C 84 ; WX 407 ; N T ; B 50 15 357 696 ;
C 85 ; WX 407 ; N U ; B 59 10 348 696 ;
C 86 ; WX 407 ; N V ; B 50 15 357 696 ;
C 87 ; WX 407 ; N W ; B 50 15 357 696 ;
C 88 ; WX 407 ; N X ; B 63 15 344 696 ;
C 89 ; WX 407 ; N Y ; B 65 15 342 696 ;
C 90 ; WX 407 ; N Z ; B 68 15 339 696 ;
C 192 ; WX 407 ; N Agrave ; B 0 0 0 0 ;
C 193 ; WX 407 ; N Aacute ; B 0 0 0 0 ;
C 194 ; WX 407 ; N Acircumflex ; B 0 0 0 0 ;
C 195 ; WX 407 ; N Atilde ; B 0 0 0 0 ;
C 196 ; WX 407 ; N Adieresis ; B 0 0 0 0 ;
C 199 ; WX 407 ; N Ccedilla ; B 0 0 0 0 ;
C 200 ; WX 407 ; N Egrave ; B 0 0 0 0 ;
C 201 ; WX 407 ; N Eacute ; B 0 0 0 0 ;
C 202 ; WX 407 ; N Ecircumflex ; B 0 0 0 0 ;
C 203 ; WX 407 ; N Edieresis ; B 0 0 0 0 ;
C 204 ; WX 407 ; N Igrave ; B 0 0 0 0 ;
C 205 ; WX 407 ; N Iacute ; B 0 0 0 0 ;
C 206 ; WX 407 ; N Icircumflex ; B 0 0 0 0 ;
C 207 ; WX 407 ; N Idieresis ; B 0 0 0 0 ;
C 210 ; WX 407 ; N Ograve ; B 0 0 0 0 ;
C 211 ; WX 407 ; N Oacute ; B 0 0 0 0 ;
C 212 ; WX 407 ; N Ocircumflex ; B 0 0 0 0 ;
C 213 ; WX 407 ; N Otilde ; B 0 0 0 0 ;
C 214 ; WX 407 ; N Odieresis ; B 0 0 0 0 ;
C 217 ; WX 407 ; N Ugrave ; B 0 0 0 0 ;
C 218 ; WX 407 ; N Uacute ; B 0 0 0 0 ;
C 219 ; WX 407 ; N Ucircumflex ; B 0 0 0 0 ;
C 220 ; WX 407 ; N Udieresis ; B 0 0 0 0 ;
C 224 ; WX 407 ; N agrave ; B 0 0 0 0 ;
C 225 ; WX 407 ; N aacute ; B 0 0 0 0 ;
C 226 ; WX 407 ; N acircumflex ; B 0 0 0 0 ;
C 227 ; WX 407 ; N atilde ; B 0 0 0 0 ;
C 231 ; WX 407 ; N ccedilla ; B 0 0 0 0 ;
C 232 ; WX 407 ; N egrave ; B 0 0 0 0 ;
C 233 ; WX 407 ; N eacute ; B 0 0 0 0 ;
C 234 ; WX 407 ; N ecircumflex ; B 0 0 0 0 ;
C 235 ; WX 407 ; N edieresis ; B 0 0 0 0 ;
C 236 ; WX 407 ; N igrave ; B 0 0 0 0 ;
C 237 ; WX 407 ; N iacute ; B 0 0 0 0 ;
C 238 ; WX 407 ; N icircumflex ; B 0 0 0 0 ;
C 239 ; WX 407 ; N idieresis ; B 0 0 0 0 ;
C 242 ; WX 407 ; N ograve ; B 0 0 0 0 ;
C 243 ; WX 407 ; N oacute ; B 0 0 0 0 ;
C 244 ; WX 407 ; N ocircumflex ; B 0 0 0 0 ;
C 249 ; WX 407 ; N ugrave ; B 0 0 0 0 ;
C 250 ; WX 407 ; N uacute ; B 0 0 0 0 ;
C 251 ; WX 407 ; N ucircumflex ; B 0 0 0 0 ;
C 252 ; WX 407 ; N udieresis ; B 0 0 0 0 ;
EndCharMetrics
EndFontMetrics
