StartFontMetrics 2.0
Comment Generated by FontForge 20161017
Comment Creation Date: Wed Nov 23 14:23:24 2016
FontName Ocr-Pbi--bek-bold
FullName Untitled1
FamilyName Ocr-Pbi
Weight Regular
Notice (Copyright (c) 2016, antoine)
ItalicAngle 0
IsFixedPitch true
UnderlinePosition -100
UnderlineThickness 50
Version 001.000
EncodingScheme ISOLatin1Encoding
FontBBox -14 -236 589 1010
CapHeight 689
XHeight 522
Ascender 744
Descender -199
StartCharMetrics 138
C 32 ; WX 612 ; N space ; B 0 0 0 0 ;
C 33 ; WX 612 ; N exclam ; B 240 22 372 689 ;
C 35 ; WX 612 ; N numbersign ; B 45 11 566 756 ;
C 37 ; WX 612 ; N percent ; B 40 3 572 764 ;
C 40 ; WX 612 ; N parenleft ; B 198 11 495 757 ;
C 41 ; WX 612 ; N parenright ; B 117 11 414 757 ;
C 42 ; WX 612 ; N asterisk ; B 46 144 565 658 ;
C 43 ; WX 612 ; N plus ; B 59 109 552 658 ;
C 44 ; WX 612 ; N comma ; B 45 -154 486 214 ;
C 45 ; WX 612 ; N hyphen ; B 59 331 552 436 ;
C 46 ; WX 612 ; N period ; B 190 22 422 200 ;
C 47 ; WX 612 ; N slash ; B 98 6 513 762 ;
C 48 ; WX 612 ; N zero ; B 59 3 552 764 ;
C 49 ; WX 612 ; N one ; B 68 22 400 766 ;
C 50 ; WX 612 ; N two ; B 76 22 538 760 ;
C 51 ; WX 612 ; N three ; B -14 8 566 745 ;
C 52 ; WX 612 ; N four ; B 41 22 552 763 ;
C 53 ; WX 612 ; N five ; B 78 17 525 745 ;
C 54 ; WX 612 ; N six ; B 59 8 552 765 ;
C 55 ; WX 612 ; N seven ; B 59 17 569 745 ;
C 56 ; WX 612 ; N eight ; B 59 8 552 760 ;
C 57 ; WX 612 ; N nine ; B 59 1 552 760 ;
C 58 ; WX 612 ; N colon ; B 190 22 422 484 ;
C 59 ; WX 612 ; N semicolon ; B 57 -154 501 484 ;
C 60 ; WX 612 ; N less ; B 23 2 573 710 ;
C 61 ; WX 612 ; N equal ; B 59 220 552 523 ;
C 62 ; WX 612 ; N greater ; B 39 2 589 710 ;
C 63 ; WX 612 ; N question ; B 101 22 513 704 ;
C 64 ; WX 612 ; N at ; B 53 8 552 763 ;
C 65 ; WX 612 ; N A ; B 41 10 570 702 ;
C 66 ; WX 612 ; N B ; B 59 22 552 689 ;
C 67 ; WX 612 ; N C ; B 92 7 559 705 ;
C 68 ; WX 612 ; N D ; B 104 22 533 690 ;
C 69 ; WX 612 ; N E ; B 104 22 541 689 ;
C 70 ; WX 612 ; N F ; B 104 22 525 689 ;
C 71 ; WX 612 ; N G ; B 70 7 539 705 ;
C 72 ; WX 612 ; N H ; B 87 22 525 689 ;
C 73 ; WX 612 ; N I ; B 115 22 497 689 ;
C 74 ; WX 612 ; N J ; B 79 7 433 689 ;
C 75 ; WX 612 ; N K ; B 73 1 574 711 ;
C 76 ; WX 612 ; N L ; B 87 22 552 689 ;
C 77 ; WX 612 ; N M ; B 55 22 557 703 ;
C 78 ; WX 612 ; N N ; B 73 7 538 705 ;
C 79 ; WX 612 ; N O ; B 62 8 550 704 ;
C 80 ; WX 612 ; N P ; B 87 22 552 689 ;
C 81 ; WX 612 ; N Q ; B 62 1 573 704 ;
C 82 ; WX 612 ; N R ; B 98 3 550 689 ;
C 83 ; WX 612 ; N S ; B 63 8 519 704 ;
C 84 ; WX 612 ; N T ; B 59 22 552 689 ;
C 85 ; WX 612 ; N U ; B 73 8 538 689 ;
C 86 ; WX 612 ; N V ; B 47 10 564 701 ;
C 87 ; WX 612 ; N W ; B 57 11 555 692 ;
C 88 ; WX 612 ; N X ; B 60 4 551 737 ;
C 89 ; WX 612 ; N Y ; B 62 22 549 708 ;
C 90 ; WX 612 ; N Z ; B 52 22 532 689 ;
C 91 ; WX 612 ; N bracketleft ; B 170 22 552 745 ;
C 93 ; WX 612 ; N bracketright ; B 59 22 441 745 ;
C 94 ; WX 612 ; N asciicircum ; B 121 560 490 766 ;
C 95 ; WX 612 ; N underscore ; B 59 -81 552 23 ;
C 96 ; WX 612 ; N grave ; B 191 560 407 766 ;
C 97 ; WX 612 ; N a ; B 65 7 534 538 ;
C 98 ; WX 612 ; N b ; B 59 8 552 745 ;
C 99 ; WX 612 ; N c ; B 73 7 537 538 ;
C 100 ; WX 612 ; N d ; B 59 8 552 745 ;
C 101 ; WX 612 ; N e ; B 59 7 537 541 ;
C 102 ; WX 612 ; N f ; B 92 22 519 746 ;
C 103 ; WX 612 ; N g ; B 59 -200 549 548 ;
C 104 ; WX 612 ; N h ; B 101 22 511 745 ;
C 105 ; WX 612 ; N i ; B 142 22 414 745 ;
C 106 ; WX 612 ; N j ; B 87 -168 414 745 ;
C 107 ; WX 612 ; N k ; B 117 1 549 745 ;
C 108 ; WX 612 ; N l ; B 198 22 497 777 ;
C 109 ; WX 612 ; N m ; B 59 22 552 538 ;
C 110 ; WX 612 ; N n ; B 73 22 538 538 ;
C 111 ; WX 612 ; N o ; B 59 8 552 538 ;
C 112 ; WX 612 ; N p ; B 59 -200 552 538 ;
C 113 ; WX 612 ; N q ; B 59 -200 552 538 ;
C 114 ; WX 612 ; N r ; B 142 22 534 539 ;
C 115 ; WX 612 ; N s ; B 87 7 508 539 ;
C 116 ; WX 612 ; N t ; B 73 22 497 745 ;
C 117 ; WX 612 ; N u ; B 73 6 538 523 ;
C 118 ; WX 612 ; N v ; B 47 7 565 538 ;
C 119 ; WX 612 ; N w ; B 59 6 553 526 ;
C 120 ; WX 612 ; N x ; B 72 2 540 544 ;
C 121 ; WX 612 ; N y ; B 40 -166 569 542 ;
C 122 ; WX 612 ; N z ; B 38 22 559 523 ;
C 123 ; WX 612 ; N braceleft ; B 111 20 552 746 ;
C 124 ; WX 612 ; N bar ; B 253 22 358 745 ;
C 125 ; WX 612 ; N braceright ; B 59 20 500 746 ;
C 168 ; WX 612 ; N dieresis ; B 170 581 441 745 ;
C 171 ; WX 612 ; N guillemotleft ; B 36 -14 490 506 ;
C 180 ; WX 612 ; N acute ; B 204 560 421 766 ;
C 184 ; WX 612 ; N cedilla ; B 237 -114 377 138 ;
C 187 ; WX 612 ; N guillemotright ; B 121 -14 575 506 ;
C 192 ; WX 612 ; N Agrave ; B 41 10 570 969 ;
C 193 ; WX 612 ; N Aacute ; B 41 10 570 969 ;
C 194 ; WX 612 ; N Acircumflex ; B 41 10 570 969 ;
C 196 ; WX 612 ; N Adieresis ; B 41 10 570 927 ;
C 199 ; WX 612 ; N Ccedilla ; B 92 -236 559 705 ;
C 200 ; WX 612 ; N Egrave ; B 104 22 541 969 ;
C 201 ; WX 612 ; N Eacute ; B 104 22 541 969 ;
C 202 ; WX 612 ; N Ecircumflex ; B 104 22 541 969 ;
C 203 ; WX 612 ; N Edieresis ; B 104 22 541 927 ;
C 204 ; WX 612 ; N Igrave ; B 115 22 497 969 ;
C 205 ; WX 612 ; N Iacute ; B 115 22 497 969 ;
C 206 ; WX 612 ; N Icircumflex ; B 115 22 497 969 ;
C 207 ; WX 612 ; N Idieresis ; B 115 22 497 927 ;
C 210 ; WX 612 ; N Ograve ; B 62 8 550 969 ;
C 211 ; WX 612 ; N Oacute ; B 62 8 550 969 ;
C 212 ; WX 612 ; N Ocircumflex ; B 62 8 550 969 ;
C 214 ; WX 612 ; N Odieresis ; B 62 8 550 927 ;
C 217 ; WX 612 ; N Ugrave ; B 73 8 538 969 ;
C 218 ; WX 612 ; N Uacute ; B 73 8 538 969 ;
C 219 ; WX 612 ; N Ucircumflex ; B 73 8 538 969 ;
C 220 ; WX 612 ; N Udieresis ; B 73 8 538 927 ;
C 224 ; WX 612 ; N agrave ; B 65 7 534 803 ;
C 225 ; WX 612 ; N aacute ; B 65 7 534 803 ;
C 226 ; WX 612 ; N acircumflex ; B 65 7 534 803 ;
C 231 ; WX 612 ; N ccedilla ; B 73 -235 537 538 ;
C 232 ; WX 612 ; N egrave ; B 59 7 537 806 ;
C 233 ; WX 612 ; N eacute ; B 59 7 537 806 ;
C 234 ; WX 612 ; N ecircumflex ; B 59 7 537 806 ;
C 235 ; WX 612 ; N edieresis ; B 59 7 537 764 ;
C 236 ; WX 612 ; N igrave ; B 142 22 415 1010 ;
C 237 ; WX 612 ; N iacute ; B 142 22 496 1010 ;
C 238 ; WX 612 ; N icircumflex ; B 142 22 532 1010 ;
C 239 ; WX 612 ; N idieresis ; B 142 22 483 968 ;
C 242 ; WX 612 ; N ograve ; B 59 8 552 803 ;
C 243 ; WX 612 ; N oacute ; B 59 8 552 803 ;
C 244 ; WX 612 ; N ocircumflex ; B 59 8 552 803 ;
C 249 ; WX 612 ; N ugrave ; B 73 6 538 803 ;
C 250 ; WX 612 ; N uacute ; B 73 6 538 803 ;
C 251 ; WX 612 ; N ucircumflex ; B 73 6 538 803 ;
C 252 ; WX 612 ; N udieresis ; B 73 6 538 760 ;
C -1 ; WX 612 ; N glyph37 ; B 59 8 358 538 ;
C -1 ; WX 612 ; N glyph44 ; B 205 532 455 745 ;
C -1 ; WX 612 ; N glyph86 ; B 131 532 546 745 ;
C -1 ; WX 612 ; N glyph89 ; B 243 553 524 766 ;
EndCharMetrics
EndFontMetrics
