StartFontMetrics 2.0
Comment Generated by FontForge 20161107
Comment Creation Date: Thu Jan 12 01:46:29 2017
FontName Ocr-Pbi-hungal
FullName Untitled1
FamilyName Ocr-Pbi
Weight Regular
Notice (Copyright (c) 2016, antoine)
ItalicAngle 0
IsFixedPitch true
UnderlinePosition -100
UnderlineThickness 50
Version 001.000
EncodingScheme iso8859-16
FontBBox -3 -200 573 933
CapHeight 689
XHeight 523
Ascender 744
Descender -168
StartCharMetrics 157
C 32 ; WX 612 ; N glyph78 ; B 0 0 0 0 ;
C 33 ; WX 612 ; N glyph109 ; B 275 22 337 690 ;
C 35 ; WX 612 ; N glyph106 ; B 80 22 531 745 ;
C 37 ; WX 612 ; N glyph36 ; B 94 18 517 750 ;
C 40 ; WX 612 ; N glyph67 ; B 233 22 448 745 ;
C 41 ; WX 612 ; N glyph51 ; B 163 22 378 745 ;
C 42 ; WX 612 ; N glyph74 ; B 94 200 517 623 ;
C 43 ; WX 612 ; N glyph85 ; B 94 144 517 623 ;
C 44 ; WX 612 ; N glyph15 ; B 122 -119 451 179 ;
C 45 ; WX 612 ; N glyph60 ; B 94 366 517 401 ;
C 46 ; WX 612 ; N glyph35 ; B 225 22 387 165 ;
C 47 ; WX 612 ; N glyph92 ; B 150 22 462 745 ;
C 48 ; WX 612 ; N glyph26 ; B 94 18 517 750 ;
C 49 ; WX 612 ; N glyph4 ; B 125 22 365 745 ;
C 50 ; WX 612 ; N glyph76 ; B 111 22 504 750 ;
C 51 ; WX 612 ; N glyph71 ; B 97 18 531 745 ;
C 52 ; WX 612 ; N glyph66 ; B 94 22 517 745 ;
C 53 ; WX 612 ; N glyph95 ; B 122 18 490 745 ;
C 54 ; WX 612 ; N glyph73 ; B 94 18 517 745 ;
C 55 ; WX 612 ; N glyph31 ; B 94 22 517 745 ;
C 56 ; WX 612 ; N glyph5 ; B 94 18 518 750 ;
C 57 ; WX 612 ; N glyph45 ; B 94 22 517 750 ;
C 58 ; WX 612 ; N glyph46 ; B 225 22 387 449 ;
C 59 ; WX 612 ; N glyph12 ; B 122 -119 406 449 ;
C 60 ; WX 612 ; N glyph70 ; B 94 22 517 690 ;
C 61 ; WX 612 ; N glyph32 ; B 94 255 517 523 ;
C 62 ; WX 612 ; N glyph39 ; B 94 22 517 690 ;
C 63 ; WX 612 ; N glyph116 ; B 136 22 479 694 ;
C 64 ; WX 612 ; N glyph28 ; B 94 18 517 750 ;
C 65 ; WX 612 ; N glyph54 ; B 89 22 523 690 ;
C 66 ; WX 612 ; N glyph1 ; B 94 22 517 690 ;
C 67 ; WX 612 ; N glyph13 ; B 128 17 506 695 ;
C 68 ; WX 612 ; N glyph65 ; B 139 22 498 690 ;
C 69 ; WX 612 ; N glyph57 ; B 138 22 506 690 ;
C 70 ; WX 612 ; N glyph84 ; B 139 22 490 690 ;
C 71 ; WX 612 ; N glyph88 ; B 105 17 500 696 ;
C 72 ; WX 612 ; N glyph62 ; B 122 22 490 690 ;
C 73 ; WX 612 ; N glyph40 ; B 150 22 462 690 ;
C 74 ; WX 612 ; N glyph86 ; B 114 17 398 690 ;
C 75 ; WX 612 ; N glyph80 ; B 108 22 517 690 ;
C 76 ; WX 612 ; N glyph96 ; B 122 22 517 690 ;
C 77 ; WX 612 ; N glyph87 ; B 90 22 522 690 ;
C 78 ; WX 612 ; N glyph3 ; B 108 22 503 690 ;
C 79 ; WX 612 ; N glyph63 ; B 97 18 514 694 ;
C 80 ; WX 612 ; N glyph99 ; B 122 22 517 689 ;
C 81 ; WX 612 ; N glyph34 ; B 97 18 517 694 ;
C 82 ; WX 612 ; N glyph48 ; B 133 22 495 689 ;
C 83 ; WX 612 ; N glyph8 ; B 116 18 484 694 ;
C 84 ; WX 612 ; N glyph111 ; B 94 22 517 690 ;
C 85 ; WX 612 ; N glyph18 ; B 108 18 503 690 ;
C 86 ; WX 612 ; N glyph110 ; B 94 22 517 690 ;
C 87 ; WX 612 ; N glyph7 ; B 94 22 517 690 ;
C 88 ; WX 612 ; N glyph42 ; B 114 22 498 690 ;
C 89 ; WX 612 ; N glyph25 ; B 116 22 495 690 ;
C 90 ; WX 612 ; N glyph0 ; B 122 22 490 689 ;
C 91 ; WX 612 ; N glyph22 ; B 205 22 517 745 ;
C 93 ; WX 612 ; N glyph11 ; B 94 22 406 745 ;
C 94 ; WX 612 ; N glyph17 ; B 177 616 434 745 ;
C 95 ; WX 612 ; N glyph43 ; B 94 -11 517 23 ;
C 96 ; WX 612 ; N glyph115 ; B 247 616 351 745 ;
C 97 ; WX 612 ; N glyph114 ; B 108 17 481 528 ;
C 98 ; WX 612 ; N glyph82 ; B 94 18 517 745 ;
C 99 ; WX 612 ; N glyph19 ; B 108 17 490 528 ;
C 100 ; WX 612 ; N glyph77 ; B 94 18 517 745 ;
C 101 ; WX 612 ; N glyph44 ; B 94 18 490 531 ;
C 102 ; WX 612 ; N glyph49 ; B 127 22 484 745 ;
C 103 ; WX 612 ; N glyph50 ; B 94 -199 517 528 ;
C 104 ; WX 612 ; N glyph33 ; B 136 22 476 745 ;
C 105 ; WX 612 ; N glyph83 ; B 177 22 378 745 ;
C 106 ; WX 612 ; N glyph9 ; B 136 -119 378 745 ;
C 107 ; WX 612 ; N glyph69 ; B 153 22 492 745 ;
C 108 ; WX 612 ; N glyph104 ; B 233 22 462 742 ;
C 109 ; WX 612 ; N glyph97 ; B 94 22 517 528 ;
C 110 ; WX 612 ; N glyph61 ; B 108 22 503 528 ;
C 111 ; WX 612 ; N glyph41 ; B 94 18 517 528 ;
C 112 ; WX 612 ; N glyph6 ; B 94 -200 517 528 ;
C 113 ; WX 612 ; N glyph52 ; B 94 -200 517 528 ;
C 114 ; WX 612 ; N glyph108 ; B 178 22 479 528 ;
C 115 ; WX 612 ; N glyph79 ; B 143 18 473 528 ;
C 116 ; WX 612 ; N glyph16 ; B 108 22 462 745 ;
C 117 ; WX 612 ; N glyph20 ; B 108 16 503 523 ;
C 118 ; WX 612 ; N glyph90 ; B 97 22 514 523 ;
C 119 ; WX 612 ; N glyph64 ; B 97 22 514 523 ;
C 120 ; WX 612 ; N glyph53 ; B 127 22 484 523 ;
C 121 ; WX 612 ; N glyph2 ; B 94 -122 514 523 ;
C 122 ; WX 612 ; N glyph14 ; B 128 22 492 523 ;
C 123 ; WX 612 ; N glyph37 ; B 95 22 517 745 ;
C 124 ; WX 612 ; N glyph68 ; B 289 22 323 745 ;
C 125 ; WX 612 ; N glyph27 ; B 94 22 517 745 ;
C 171 ; WX 612 ; N glyph91 ; B 94 17 434 449 ;
C 181 ; WX 612 ; N glyph10 ; B 162 588 449 745 ;
C 187 ; WX 612 ; N glyph98 ; B 177 17 517 449 ;
C 189 ; WX 612 ; N glyph101 ; B 94 18 323 528 ;
C 192 ; WX 612 ; N glyph117 ; B 89 22 523 882 ;
C 193 ; WX 612 ; N glyph118 ; B 89 22 523 882 ;
C 194 ; WX 612 ; N glyph119 ; B 89 22 523 882 ;
C 196 ; WX 612 ; N glyph121 ; B 89 22 523 882 ;
C 199 ; WX 612 ; N glyph122 ; B 128 -118 506 695 ;
C 200 ; WX 612 ; N glyph123 ; B 69 22 506 882 ;
C 201 ; WX 612 ; N glyph124 ; B 138 22 506 882 ;
C 202 ; WX 612 ; N glyph125 ; B 27 22 506 882 ;
C 203 ; WX 612 ; N glyph126 ; B 55 22 506 882 ;
C 204 ; WX 612 ; N glyph127 ; B 150 22 462 882 ;
C 205 ; WX 612 ; N glyph128 ; B 150 22 462 882 ;
C 206 ; WX 612 ; N glyph129 ; B 150 22 462 882 ;
C 207 ; WX 612 ; N glyph130 ; B 150 22 462 882 ;
C 210 ; WX 612 ; N glyph131 ; B 97 18 514 882 ;
C 211 ; WX 612 ; N glyph132 ; B 97 18 514 882 ;
C 212 ; WX 612 ; N glyph133 ; B 97 18 514 882 ;
C 214 ; WX 612 ; N glyph135 ; B 97 18 514 882 ;
C 217 ; WX 612 ; N glyph136 ; B 38 18 503 882 ;
C 218 ; WX 612 ; N glyph137 ; B 108 18 503 882 ;
C 219 ; WX 612 ; N glyph138 ; B -3 18 503 882 ;
C 220 ; WX 612 ; N glyph139 ; B 25 18 503 882 ;
C 224 ; WX 612 ; N glyph140 ; B 108 17 481 716 ;
C 225 ; WX 612 ; N glyph141 ; B 108 17 481 716 ;
C 226 ; WX 612 ; N glyph142 ; B 108 17 481 716 ;
C 231 ; WX 612 ; N glyph144 ; B 108 -117 490 528 ;
C 232 ; WX 612 ; N glyph145 ; B 94 18 490 719 ;
C 233 ; WX 612 ; N glyph146 ; B 94 18 490 719 ;
C 234 ; WX 612 ; N glyph147 ; B 94 18 490 719 ;
C 235 ; WX 612 ; N glyph148 ; B 94 18 490 719 ;
C 236 ; WX 612 ; N glyph149 ; B 177 22 378 933 ;
C 237 ; WX 612 ; N glyph150 ; B 177 22 434 933 ;
C 238 ; WX 612 ; N glyph151 ; B 177 22 476 933 ;
C 239 ; WX 612 ; N glyph152 ; B 177 22 448 933 ;
C 242 ; WX 612 ; N glyph153 ; B 94 18 517 716 ;
C 243 ; WX 612 ; N glyph154 ; B 94 18 517 716 ;
C 244 ; WX 612 ; N glyph155 ; B 94 18 517 716 ;
C 249 ; WX 612 ; N glyph156 ; B 108 16 503 716 ;
C 250 ; WX 612 ; N glyph157 ; B 108 16 503 716 ;
C 251 ; WX 612 ; N glyph158 ; B 108 16 503 716 ;
C 252 ; WX 612 ; N glyph159 ; B 108 16 503 716 ;
C -1 ; WX 612 ; N glyph21 ; B 39 -50 573 722 ;
C -1 ; WX 612 ; N glyph23 ; B 261 616 365 745 ;
C -1 ; WX 612 ; N glyph24 ; B 66 -50 545 722 ;
C -1 ; WX 612 ; N glyph29 ; B 349 588 474 745 ;
C -1 ; WX 612 ; N glyph30 ; B 80 -50 545 722 ;
C -1 ; WX 612 ; N glyph38 ; B 67 -50 517 722 ;
C -1 ; WX 612 ; N glyph47 ; B 80 -50 573 722 ;
C -1 ; WX 612 ; N glyph55 ; B 67 -50 517 722 ;
C -1 ; WX 612 ; N glyph56 ; B 80 -50 517 722 ;
C -1 ; WX 612 ; N glyph58 ; B 80 116 551 658 ;
C -1 ; WX 612 ; N glyph59 ; B 80 -50 545 706 ;
C -1 ; WX 612 ; N glyph72 ; B 39 5 545 722 ;
C -1 ; WX 612 ; N glyph75 ; B 66 -50 573 722 ;
C -1 ; WX 612 ; N glyph81 ; B 280 -96 359 44 ;
C -1 ; WX 612 ; N glyph89 ; B 66 -50 573 722 ;
C -1 ; WX 612 ; N glyph93 ; B 80 -50 573 722 ;
C -1 ; WX 612 ; N glyph94 ; B 247 588 365 745 ;
C -1 ; WX 612 ; N glyph100 ; B 66 -50 517 722 ;
C -1 ; WX 612 ; N glyph102 ; B 66 -50 545 722 ;
C -1 ; WX 612 ; N glyph103 ; B 205 616 406 745 ;
C -1 ; WX 612 ; N glyph105 ; B 94 -50 517 722 ;
C -1 ; WX 612 ; N glyph107 ; B 53 -50 559 722 ;
C -1 ; WX 612 ; N glyph112 ; B 80 -50 551 722 ;
C -1 ; WX 612 ; N glyph113 ; B 66 -50 545 706 ;
EndCharMetrics
EndFontMetrics
