StartFontMetrics 2.0
Comment Generated by FontForge 20160506
Comment Creation Date: Fri Oct 14 10:16:17 2016
FontName Ocr-Pbi-hovelbot-5pt
FullName Untitled1
FamilyName Ocr-Pbi
Weight Regular
Notice (Copyright (c) 2016, antoine)
ItalicAngle 0
IsFixedPitch true
UnderlinePosition -100
UnderlineThickness 50
Version 001.000
EncodingScheme ISOLatin1Encoding
FontBBox 25 -201 867 962
CapHeight 689
XHeight 531
Ascender 753
Descender -173
StartCharMetrics 141
C 32 ; WX 977 ; N space ; B 0 0 0 0 ;
C 33 ; WX 977 ; N exclam ; B 422 22 556 690 ;
C 35 ; WX 977 ; N numbersign ; B 110 21 867 745 ;
C 37 ; WX 977 ; N percent ; B 132 9 845 758 ;
C 40 ; WX 977 ; N parenleft ; B 355 22 734 745 ;
C 41 ; WX 977 ; N parenright ; B 243 22 622 745 ;
C 42 ; WX 977 ; N asterisk ; B 132 171 845 651 ;
C 43 ; WX 977 ; N plus ; B 132 116 845 651 ;
C 44 ; WX 977 ; N comma ; B 177 -147 738 206 ;
C 45 ; WX 977 ; N hyphen ; B 132 338 845 428 ;
C 46 ; WX 977 ; N period ; B 342 22 636 192 ;
C 47 ; WX 977 ; N slash ; B 221 21 756 745 ;
C 48 ; WX 977 ; N zero ; B 133 6 845 760 ;
C 49 ; WX 977 ; N one ; B 181 21 600 745 ;
C 50 ; WX 977 ; N two ; B 159 22 818 759 ;
C 51 ; WX 977 ; N three ; B 137 9 867 745 ;
C 52 ; WX 977 ; N four ; B 132 21 845 745 ;
C 53 ; WX 977 ; N five ; B 177 15 800 745 ;
C 54 ; WX 977 ; N six ; B 132 9 845 745 ;
C 55 ; WX 977 ; N seven ; B 132 21 845 745 ;
C 56 ; WX 977 ; N eight ; B 132 9 845 758 ;
C 57 ; WX 977 ; N nine ; B 133 22 845 758 ;
C 58 ; WX 977 ; N colon ; B 342 22 636 477 ;
C 59 ; WX 977 ; N semicolon ; B 177 -147 667 477 ;
C 60 ; WX 977 ; N less ; B 133 22 845 690 ;
C 61 ; WX 977 ; N equal ; B 132 227 845 523 ;
C 62 ; WX 977 ; N greater ; B 132 22 845 690 ;
C 63 ; WX 977 ; N question ; B 199 22 779 704 ;
C 64 ; WX 977 ; N at ; B 133 9 845 759 ;
C 65 ; WX 977 ; N A ; B 124 21 854 690 ;
C 66 ; WX 977 ; N B ; B 132 21 845 690 ;
C 67 ; WX 977 ; N C ; B 186 9 828 702 ;
C 68 ; WX 977 ; N D ; B 204 22 813 690 ;
C 69 ; WX 977 ; N E ; B 203 21 827 690 ;
C 70 ; WX 977 ; N F ; B 203 21 801 690 ;
C 71 ; WX 977 ; N G ; B 150 9 818 702 ;
C 72 ; WX 977 ; N H ; B 177 21 801 690 ;
C 73 ; WX 977 ; N I ; B 221 21 756 690 ;
C 74 ; WX 977 ; N J ; B 164 9 654 690 ;
C 75 ; WX 977 ; N K ; B 155 21 845 690 ;
C 76 ; WX 977 ; N L ; B 177 22 845 690 ;
C 77 ; WX 977 ; N M ; B 133 21 845 690 ;
C 78 ; WX 977 ; N N ; B 155 21 822 690 ;
C 79 ; WX 977 ; N O ; B 137 9 840 702 ;
C 80 ; WX 977 ; N P ; B 177 21 845 689 ;
C 81 ; WX 977 ; N Q ; B 137 9 845 702 ;
C 82 ; WX 977 ; N R ; B 194 21 809 689 ;
C 83 ; WX 977 ; N S ; B 167 9 791 703 ;
C 84 ; WX 977 ; N T ; B 132 21 845 690 ;
C 85 ; WX 977 ; N U ; B 155 9 822 690 ;
C 86 ; WX 977 ; N V ; B 133 21 845 690 ;
C 87 ; WX 977 ; N W ; B 133 21 845 690 ;
C 88 ; WX 977 ; N X ; B 163 21 814 712 ;
C 89 ; WX 977 ; N Y ; B 168 21 809 690 ;
C 90 ; WX 977 ; N Z ; B 177 22 801 689 ;
C 91 ; WX 977 ; N bracketleft ; B 310 22 845 745 ;
C 93 ; WX 977 ; N bracketright ; B 132 22 667 745 ;
C 94 ; WX 977 ; N asciicircum ; B 266 588 712 745 ;
C 95 ; WX 977 ; N underscore ; B 132 -67 845 23 ;
C 96 ; WX 977 ; N grave ; B 377 588 579 745 ;
C 97 ; WX 977 ; N a ; B 133 9 845 535 ;
C 98 ; WX 977 ; N b ; B 133 9 845 745 ;
C 99 ; WX 977 ; N c ; B 155 7 801 538 ;
C 100 ; WX 977 ; N d ; B 133 9 845 745 ;
C 101 ; WX 977 ; N e ; B 133 7 801 542 ;
C 102 ; WX 977 ; N f ; B 185 21 792 745 ;
C 103 ; WX 977 ; N g ; B 133 -197 845 540 ;
C 104 ; WX 977 ; N h ; B 199 21 778 745 ;
C 105 ; WX 977 ; N i ; B 265 21 622 745 ;
C 106 ; WX 977 ; N j ; B 199 -148 622 745 ;
C 107 ; WX 977 ; N k ; B 226 21 805 745 ;
C 108 ; WX 977 ; N l ; B 355 22 756 770 ;
C 109 ; WX 977 ; N m ; B 133 21 845 535 ;
C 110 ; WX 977 ; N n ; B 155 21 822 536 ;
C 111 ; WX 977 ; N o ; B 133 9 845 535 ;
C 112 ; WX 977 ; N p ; B 133 -201 845 535 ;
C 113 ; WX 977 ; N q ; B 133 -201 845 535 ;
C 114 ; WX 977 ; N r ; B 266 21 783 539 ;
C 115 ; WX 977 ; N s ; B 210 9 773 539 ;
C 116 ; WX 977 ; N t ; B 154 22 756 745 ;
C 117 ; WX 977 ; N u ; B 155 8 822 523 ;
C 118 ; WX 977 ; N v ; B 137 21 840 523 ;
C 119 ; WX 977 ; N w ; B 137 21 840 523 ;
C 120 ; WX 977 ; N x ; B 186 22 792 523 ;
C 121 ; WX 977 ; N y ; B 132 -150 841 523 ;
C 122 ; WX 977 ; N z ; B 186 22 805 523 ;
C 123 ; WX 977 ; N braceleft ; B 133 7 845 747 ;
C 124 ; WX 977 ; N bar ; B 444 21 534 745 ;
C 125 ; WX 977 ; N braceright ; B 132 7 844 747 ;
C 168 ; WX 977 ; N dieresis ; B 310 588 667 745 ;
C 171 ; WX 977 ; N guillemotleft ; B 133 9 712 477 ;
C 180 ; WX 977 ; N acute ; B 399 588 601 745 ;
C 184 ; WX 977 ; N cedilla ; B 439 -131 583 77 ;
C 187 ; WX 977 ; N guillemotright ; B 265 9 845 477 ;
C 192 ; WX 977 ; N Agrave ; B 124 21 854 918 ;
C 193 ; WX 977 ; N Aacute ; B 124 21 854 918 ;
C 194 ; WX 977 ; N Acircumflex ; B 124 21 854 918 ;
C 195 ; WX 977 ; N Atilde ; B 0 0 0 0 ;
C 196 ; WX 977 ; N Adieresis ; B 124 21 854 919 ;
C 199 ; WX 977 ; N Ccedilla ; B 186 -190 828 702 ;
C 200 ; WX 977 ; N Egrave ; B 91 21 827 918 ;
C 201 ; WX 977 ; N Eacute ; B 203 21 827 918 ;
C 202 ; WX 977 ; N Ecircumflex ; B 25 21 827 918 ;
C 203 ; WX 977 ; N Edieresis ; B 70 21 827 919 ;
C 204 ; WX 977 ; N Igrave ; B 221 21 756 918 ;
C 205 ; WX 977 ; N Iacute ; B 221 21 756 918 ;
C 206 ; WX 977 ; N Icircumflex ; B 221 21 756 918 ;
C 207 ; WX 977 ; N Idieresis ; B 221 21 756 919 ;
C 210 ; WX 977 ; N Ograve ; B 137 9 840 918 ;
C 211 ; WX 977 ; N Oacute ; B 137 9 840 918 ;
C 212 ; WX 977 ; N Ocircumflex ; B 137 9 840 918 ;
C 213 ; WX 977 ; N Otilde ; B 0 0 0 0 ;
C 214 ; WX 977 ; N Odieresis ; B 137 9 840 919 ;
C 217 ; WX 977 ; N Ugrave ; B 155 9 822 918 ;
C 218 ; WX 977 ; N Uacute ; B 155 9 822 918 ;
C 219 ; WX 977 ; N Ucircumflex ; B 155 9 822 918 ;
C 220 ; WX 977 ; N Udieresis ; B 155 9 822 919 ;
C 224 ; WX 977 ; N agrave ; B 133 9 845 752 ;
C 225 ; WX 977 ; N aacute ; B 133 9 845 752 ;
C 226 ; WX 977 ; N acircumflex ; B 133 9 845 752 ;
C 227 ; WX 977 ; N atilde ; B 0 0 0 0 ;
C 231 ; WX 977 ; N ccedilla ; B 155 -193 801 538 ;
C 232 ; WX 977 ; N egrave ; B 133 7 801 758 ;
C 233 ; WX 977 ; N eacute ; B 133 7 801 758 ;
C 234 ; WX 977 ; N ecircumflex ; B 133 7 801 758 ;
C 235 ; WX 977 ; N edieresis ; B 133 7 801 759 ;
C 236 ; WX 977 ; N igrave ; B 265 21 622 961 ;
C 237 ; WX 977 ; N iacute ; B 265 21 712 961 ;
C 238 ; WX 977 ; N icircumflex ; B 265 21 778 961 ;
C 239 ; WX 977 ; N idieresis ; B 265 21 733 962 ;
C 242 ; WX 977 ; N ograve ; B 133 9 845 752 ;
C 243 ; WX 977 ; N oacute ; B 133 9 845 752 ;
C 244 ; WX 977 ; N ocircumflex ; B 133 9 845 752 ;
C 249 ; WX 977 ; N ugrave ; B 155 8 822 752 ;
C 250 ; WX 977 ; N uacute ; B 155 8 822 752 ;
C 251 ; WX 977 ; N ucircumflex ; B 155 8 822 752 ;
C 252 ; WX 977 ; N udieresis ; B 155 8 822 752 ;
C -1 ; WX 977 ; N glyph37 ; B 133 6 534 539 ;
C -1 ; WX 977 ; N glyph44 ; B 376 560 600 745 ;
C -1 ; WX 977 ; N glyph86 ; B 295 560 682 745 ;
C -1 ; WX 977 ; N glyph89 ; B 479 561 702 745 ;
EndCharMetrics
EndFontMetrics
