StartFontMetrics 2.0
Comment Generated by FontForge 20160506
Comment Creation Date: Thu Oct  6 11:48:17 2016
FontName Ocr-Pbi-mabille
FullName Untitled1
FamilyName Ocr-Pbi
Weight Regular
Notice (Copyright (c) 2016, antoine)
ItalicAngle 0
IsFixedPitch true
UnderlinePosition -100
UnderlineThickness 50
Version 001.000
EncodingScheme ISOLatin1Encoding
FontBBox 43 -200 598 917
CapHeight 689
XHeight 522
Ascender 744
Descender -153
StartCharMetrics 141
C 32 ; WX 611 ; N space ; B 0 0 0 0 ;
C 33 ; WX 611 ; N exclam ; B 290 22 321 689 ;
C 35 ; WX 611 ; N numbersign ; B 96 22 515 745 ;
C 37 ; WX 611 ; N percent ; B 110 22 501 745 ;
C 40 ; WX 611 ; N parenleft ; B 248 22 432 745 ;
C 41 ; WX 611 ; N parenright ; B 179 22 362 745 ;
C 42 ; WX 611 ; N asterisk ; B 110 215 501 607 ;
C 43 ; WX 611 ; N plus ; B 110 160 501 607 ;
C 44 ; WX 611 ; N comma ; B 137 -104 435 163 ;
C 45 ; WX 611 ; N hyphen ; B 110 382 501 385 ;
C 46 ; WX 611 ; N period ; B 240 22 371 149 ;
C 47 ; WX 611 ; N slash ; B 165 22 446 745 ;
C 48 ; WX 611 ; N zero ; B 110 22 501 745 ;
C 49 ; WX 611 ; N one ; B 140 22 348 745 ;
C 50 ; WX 611 ; N two ; B 126 22 489 745 ;
C 51 ; WX 611 ; N three ; B 112 22 515 745 ;
C 52 ; WX 611 ; N four ; B 110 22 501 745 ;
C 53 ; WX 611 ; N five ; B 137 18 474 745 ;
C 54 ; WX 611 ; N six ; B 109 22 501 745 ;
C 55 ; WX 611 ; N seven ; B 110 22 501 745 ;
C 56 ; WX 611 ; N eight ; B 109 22 502 745 ;
C 57 ; WX 611 ; N nine ; B 109 22 501 745 ;
C 58 ; WX 611 ; N colon ; B 240 22 371 433 ;
C 59 ; WX 611 ; N semicolon ; B 137 -104 390 433 ;
C 60 ; WX 611 ; N less ; B 110 22 501 689 ;
C 61 ; WX 611 ; N equal ; B 110 271 501 523 ;
C 62 ; WX 611 ; N greater ; B 110 22 501 689 ;
C 63 ; WX 611 ; N question ; B 151 22 464 690 ;
C 64 ; WX 611 ; N at ; B 110 22 502 745 ;
C 65 ; WX 611 ; N A ; B 104 22 507 689 ;
C 66 ; WX 611 ; N B ; B 110 22 501 689 ;
C 67 ; WX 611 ; N C ; B 143 21 490 690 ;
C 68 ; WX 611 ; N D ; B 154 22 482 690 ;
C 69 ; WX 611 ; N E ; B 154 22 490 689 ;
C 70 ; WX 611 ; N F ; B 154 22 473 689 ;
C 71 ; WX 611 ; N G ; B 121 21 485 691 ;
C 72 ; WX 611 ; N H ; B 137 22 473 689 ;
C 73 ; WX 611 ; N I ; B 165 22 446 689 ;
C 74 ; WX 611 ; N J ; B 129 22 382 689 ;
C 75 ; WX 611 ; N K ; B 124 22 501 689 ;
C 76 ; WX 611 ; N L ; B 137 22 501 689 ;
C 77 ; WX 611 ; N M ; B 110 22 501 689 ;
C 78 ; WX 611 ; N N ; B 124 22 487 689 ;
C 79 ; WX 611 ; N O ; B 112 22 498 690 ;
C 80 ; WX 611 ; N P ; B 137 22 501 689 ;
C 81 ; WX 611 ; N Q ; B 112 22 501 690 ;
C 82 ; WX 611 ; N R ; B 148 22 479 689 ;
C 83 ; WX 611 ; N S ; B 132 22 468 690 ;
C 84 ; WX 611 ; N T ; B 110 22 501 689 ;
C 85 ; WX 611 ; N U ; B 124 22 487 689 ;
C 86 ; WX 611 ; N V ; B 110 22 501 689 ;
C 87 ; WX 611 ; N W ; B 110 22 501 689 ;
C 88 ; WX 611 ; N X ; B 129 22 482 689 ;
C 89 ; WX 611 ; N Y ; B 132 22 479 689 ;
C 90 ; WX 611 ; N Z ; B 137 22 473 689 ;
C 91 ; WX 611 ; N bracketleft ; B 221 22 501 745 ;
C 93 ; WX 611 ; N bracketright ; B 110 22 390 745 ;
C 94 ; WX 611 ; N asciicircum ; B 193 632 418 745 ;
C 95 ; WX 611 ; N underscore ; B 110 20 501 23 ;
C 96 ; WX 611 ; N grave ; B 262 632 335 745 ;
C 97 ; WX 611 ; N a ; B 110 22 501 523 ;
C 98 ; WX 611 ; N b ; B 110 22 501 745 ;
C 99 ; WX 611 ; N c ; B 124 22 474 523 ;
C 100 ; WX 611 ; N d ; B 110 22 501 745 ;
C 101 ; WX 611 ; N e ; B 109 22 474 526 ;
C 102 ; WX 611 ; N f ; B 143 22 468 745 ;
C 103 ; WX 611 ; N g ; B 110 -156 501 523 ;
C 104 ; WX 611 ; N h ; B 151 22 460 745 ;
C 105 ; WX 611 ; N i ; B 193 22 362 745 ;
C 106 ; WX 611 ; N j ; B 151 -104 362 745 ;
C 107 ; WX 611 ; N k ; B 168 22 476 745 ;
C 108 ; WX 611 ; N l ; B 248 22 446 726 ;
C 109 ; WX 611 ; N m ; B 110 22 501 523 ;
C 110 ; WX 611 ; N n ; B 124 22 487 524 ;
C 111 ; WX 611 ; N o ; B 110 22 501 523 ;
C 112 ; WX 611 ; N p ; B 110 -200 501 523 ;
C 113 ; WX 611 ; N q ; B 110 -200 501 523 ;
C 114 ; WX 611 ; N r ; B 193 22 462 524 ;
C 115 ; WX 611 ; N s ; B 158 22 457 524 ;
C 116 ; WX 611 ; N t ; B 124 22 446 745 ;
C 117 ; WX 611 ; N u ; B 124 20 487 523 ;
C 118 ; WX 611 ; N v ; B 112 22 498 523 ;
C 119 ; WX 611 ; N w ; B 112 22 498 523 ;
C 120 ; WX 611 ; N x ; B 143 22 468 523 ;
C 121 ; WX 611 ; N y ; B 110 -107 498 523 ;
C 122 ; WX 611 ; N z ; B 143 22 476 523 ;
C 123 ; WX 611 ; N braceleft ; B 110 22 501 745 ;
C 124 ; WX 611 ; N bar ; B 304 22 307 745 ;
C 125 ; WX 611 ; N braceright ; B 110 22 501 745 ;
C 168 ; WX 611 ; N dieresis ; B 221 632 390 745 ;
C 171 ; WX 611 ; N guillemotleft ; B 110 22 418 433 ;
C 180 ; WX 611 ; N acute ; B 276 632 348 745 ;
C 184 ; WX 611 ; N cedilla ; B 288 -89 351 24 ;
C 187 ; WX 611 ; N guillemotright ; B 193 22 501 433 ;
C 192 ; WX 611 ; N Agrave ; B 104 22 507 862 ;
C 193 ; WX 611 ; N Aacute ; B 104 22 507 862 ;
C 194 ; WX 611 ; N Acircumflex ; B 104 22 507 862 ;
C 195 ; WX 611 ; N Atilde ; B 0 0 0 0 ;
C 196 ; WX 611 ; N Adieresis ; B 104 22 507 862 ;
C 199 ; WX 611 ; N Ccedilla ; B 143 -88 490 690 ;
C 200 ; WX 611 ; N Egrave ; B 85 22 490 862 ;
C 201 ; WX 611 ; N Eacute ; B 154 22 490 862 ;
C 202 ; WX 611 ; N Ecircumflex ; B 43 22 490 862 ;
C 203 ; WX 611 ; N Edieresis ; B 71 22 490 862 ;
C 204 ; WX 611 ; N Igrave ; B 165 22 446 862 ;
C 205 ; WX 611 ; N Iacute ; B 165 22 446 862 ;
C 206 ; WX 611 ; N Icircumflex ; B 165 22 446 862 ;
C 207 ; WX 611 ; N Idieresis ; B 165 22 446 862 ;
C 210 ; WX 611 ; N Ograve ; B 112 22 498 862 ;
C 211 ; WX 611 ; N Oacute ; B 112 22 498 862 ;
C 212 ; WX 611 ; N Ocircumflex ; B 112 22 498 862 ;
C 213 ; WX 611 ; N Otilde ; B 0 0 0 0 ;
C 214 ; WX 611 ; N Odieresis ; B 112 22 498 862 ;
C 217 ; WX 611 ; N Ugrave ; B 124 22 487 862 ;
C 218 ; WX 611 ; N Uacute ; B 124 22 557 862 ;
C 219 ; WX 611 ; N Ucircumflex ; B 124 22 598 862 ;
C 220 ; WX 611 ; N Udieresis ; B 124 22 571 862 ;
C 224 ; WX 611 ; N agrave ; B 110 22 501 695 ;
C 225 ; WX 611 ; N aacute ; B 110 22 501 695 ;
C 226 ; WX 611 ; N acircumflex ; B 110 22 501 695 ;
C 227 ; WX 611 ; N atilde ; B 0 0 0 0 ;
C 231 ; WX 611 ; N ccedilla ; B 124 -87 474 523 ;
C 232 ; WX 611 ; N egrave ; B 109 22 474 698 ;
C 233 ; WX 611 ; N eacute ; B 109 22 474 698 ;
C 234 ; WX 611 ; N ecircumflex ; B 109 22 474 698 ;
C 235 ; WX 611 ; N edieresis ; B 109 22 474 698 ;
C 236 ; WX 611 ; N igrave ; B 193 22 362 917 ;
C 237 ; WX 611 ; N iacute ; B 193 22 418 917 ;
C 238 ; WX 611 ; N icircumflex ; B 193 22 460 917 ;
C 239 ; WX 611 ; N idieresis ; B 193 22 432 917 ;
C 242 ; WX 611 ; N ograve ; B 110 22 501 695 ;
C 243 ; WX 611 ; N oacute ; B 110 22 501 695 ;
C 244 ; WX 611 ; N ocircumflex ; B 110 22 501 695 ;
C 249 ; WX 611 ; N ugrave ; B 124 20 487 695 ;
C 250 ; WX 611 ; N uacute ; B 124 20 487 695 ;
C 251 ; WX 611 ; N ucircumflex ; B 124 20 487 695 ;
C 252 ; WX 611 ; N udieresis ; B 124 20 487 695 ;
C -1 ; WX 611 ; N glyph37 ; B 110 22 307 523 ;
C -1 ; WX 611 ; N glyph44 ; B 262 604 348 745 ;
C -1 ; WX 611 ; N glyph86 ; B 176 604 435 745 ;
C -1 ; WX 611 ; N glyph89 ; B 364 604 461 745 ;
EndCharMetrics
EndFontMetrics
