StartFontMetrics 2.0
Comment Generated by FontForge 20161017
Comment Creation Date: Mon Nov 28 23:50:20 2016
FontName Ocr-Pbi-square-monon
FullName Untitled1
FamilyName Ocr-Pbi
Weight Regular
Notice (Copyright (c) 2016, antoine)
ItalicAngle 0
IsFixedPitch false
UnderlinePosition -100
UnderlineThickness 50
Version 001.000
EncodingScheme ISOLatin1Encoding
FontBBox -1 -200 760 1003
CapHeight 689
XHeight 522
Ascender 744
Descender -199
StartCharMetrics 138
C 32 ; WX 501 ; N space ; B 0 0 0 0 ;
C 33 ; WX 371 ; N exclam ; B 146 22 225 689 ;
C 35 ; WX 612 ; N numbersign ; B 69 17 542 750 ;
C 37 ; WX 612 ; N percent ; B 73 12 538 755 ;
C 40 ; WX 334 ; N parenleft ; B 83 15 327 752 ;
C 41 ; WX 334 ; N parenright ; B 7 15 251 752 ;
C 42 ; WX 612 ; N asterisk ; B 76 178 535 634 ;
C 43 ; WX 612 ; N plus ; B 83 133 528 634 ;
C 44 ; WX 612 ; N comma ; B 88 -130 462 190 ;
C 45 ; WX 612 ; N hyphen ; B 83 355 528 412 ;
C 46 ; WX 501 ; N period ; B 158 22 398 176 ;
C 47 ; WX 612 ; N slash ; B 130 14 481 753 ;
C 48 ; WX 612 ; N zero ; B 83 14 528 753 ;
C 49 ; WX 612 ; N one ; B 102 22 376 756 ;
C 50 ; WX 612 ; N two ; B 100 22 514 753 ;
C 51 ; WX 612 ; N three ; B 75 14 542 745 ;
C 52 ; WX 612 ; N four ; B 74 22 528 754 ;
C 53 ; WX 612 ; N five ; B 107 18 501 745 ;
C 54 ; WX 612 ; N six ; B 83 14 528 756 ;
C 55 ; WX 612 ; N seven ; B 83 19 533 745 ;
C 56 ; WX 612 ; N eight ; B 83 14 528 753 ;
C 57 ; WX 612 ; N nine ; B 83 11 528 753 ;
C 58 ; WX 612 ; N colon ; B 214 22 398 460 ;
C 59 ; WX 612 ; N semicolon ; B 95 -130 449 460 ;
C 60 ; WX 612 ; N less ; B 66 11 539 701 ;
C 61 ; WX 612 ; N equal ; B 83 244 528 523 ;
C 62 ; WX 612 ; N greater ; B 72 11 545 701 ;
C 63 ; WX 612 ; N question ; B 125 22 490 697 ;
C 64 ; WX 612 ; N at ; B 83 14 528 753 ;
C 65 ; WX 677 ; N A ; B 66 11 610 689 ;
C 66 ; WX 677 ; N B ; B 83 22 593 689 ;
C 67 ; WX 779 ; N C ; B 146 14 673 698 ;
C 68 ; WX 770 ; N D ; B 161 22 650 690 ;
C 69 ; WX 612 ; N E ; B 128 22 517 689 ;
C 70 ; WX 612 ; N F ; B 128 22 500 689 ;
C 71 ; WX 677 ; N G ; B 96 14 574 698 ;
C 72 ; WX 677 ; N H ; B 116 22 561 689 ;
C 73 ; WX 464 ; N I ; B 88 22 376 689 ;
C 74 ; WX 612 ; N J ; B 103 14 409 689 ;
C 75 ; WX 612 ; N K ; B 97 21 530 689 ;
C 76 ; WX 612 ; N L ; B 57 -186 271 786 ;
C 77 ; WX 1062 ; N M ; B -1 -15 483 619 ;
C 78 ; WX 1134 ; N N ; B -1 -200 552 801 ;
C 79 ; WX 779 ; N O ; B 105 14 673 697 ;
C 80 ; WX 677 ; N P ; B 116 22 593 689 ;
C 81 ; WX 754 ; N Q ; B -1 -200 593 709 ;
C 82 ; WX 886 ; N R ; B -1 -200 626 711 ;
C 83 ; WX 612 ; N S ; B 96 14 495 697 ;
C 84 ; WX 612 ; N T ; B 83 22 528 689 ;
C 85 ; WX 612 ; N U ; B 97 14 514 689 ;
C 86 ; WX 677 ; N V ; B 76 15 600 696 ;
C 87 ; WX 779 ; N W ; B 99 15 679 692 ;
C 88 ; WX 612 ; N X ; B 93 13 518 705 ;
C 89 ; WX 658 ; N Y ; B 89 22 568 700 ;
C 90 ; WX 612 ; N Z ; B 94 22 500 689 ;
C 91 ; WX 612 ; N bracketleft ; B 194 22 528 745 ;
C 93 ; WX 612 ; N bracketright ; B 83 22 417 745 ;
C 94 ; WX 612 ; N asciicircum ; B 155 594 456 756 ;
C 95 ; WX 612 ; N underscore ; B 83 -33 528 23 ;
C 96 ; WX 612 ; N grave ; B 225 594 373 756 ;
C 97 ; WX 612 ; N a ; B 97 14 502 531 ;
C 98 ; WX 612 ; N b ; B 83 14 528 745 ;
C 99 ; WX 612 ; N c ; B 97 14 507 531 ;
C 100 ; WX 612 ; N d ; B 83 14 528 745 ;
C 101 ; WX 612 ; N e ; B 83 14 507 534 ;
C 102 ; WX 556 ; N f ; B 89 22 467 848 ;
C 103 ; WX 612 ; N g ; B 83 -182 528 531 ;
C 104 ; WX 612 ; N h ; B 99 22 512 745 ;
C 105 ; WX 417 ; N i ; B 61 -181 198 781 ;
C 106 ; WX 501 ; N j ; B 41 -184 198 784 ;
C 107 ; WX 658 ; N k ; B 151 11 575 745 ;
C 108 ; WX 417 ; N l ; B 134 22 352 753 ;
C 109 ; WX 881 ; N m ; B 120 22 760 531 ;
C 110 ; WX 612 ; N n ; B 97 22 514 531 ;
C 111 ; WX 612 ; N o ; B 83 14 528 531 ;
C 112 ; WX 612 ; N p ; B 83 -200 528 531 ;
C 113 ; WX 612 ; N q ; B 83 -200 528 531 ;
C 114 ; WX 482 ; N r ; B 111 22 444 532 ;
C 115 ; WX 556 ; N s ; B 94 14 456 532 ;
C 116 ; WX 556 ; N t ; B 69 22 445 745 ;
C 117 ; WX 612 ; N u ; B 97 13 514 523 ;
C 118 ; WX 556 ; N v ; B 37 14 518 531 ;
C 119 ; WX 779 ; N w ; B 102 13 676 526 ;
C 120 ; WX 612 ; N x ; B 106 12 506 534 ;
C 121 ; WX 612 ; N y ; B 73 -138 535 533 ;
C 122 ; WX 612 ; N z ; B 91 22 506 523 ;
C 123 ; WX 612 ; N braceleft ; B 111 22 528 745 ;
C 124 ; WX 612 ; N bar ; B 277 22 334 745 ;
C 125 ; WX 612 ; N braceright ; B 83 22 500 745 ;
C 168 ; WX 612 ; N dieresis ; B 194 605 417 745 ;
C 171 ; WX 612 ; N guillemotleft ; B 72 3 456 472 ;
C 180 ; WX 612 ; N acute ; B 238 594 387 756 ;
C 184 ; WX 612 ; N cedilla ; B 261 -102 365 85 ;
C 187 ; WX 612 ; N guillemotright ; B 155 3 540 472 ;
C 192 ; WX 677 ; N Agrave ; B 66 11 610 919 ;
C 193 ; WX 677 ; N Aacute ; B 66 11 610 919 ;
C 194 ; WX 677 ; N Acircumflex ; B 66 11 610 919 ;
C 196 ; WX 677 ; N Adieresis ; B 66 11 610 896 ;
C 199 ; WX 779 ; N Ccedilla ; B 146 -166 673 698 ;
C 200 ; WX 612 ; N Egrave ; B 128 22 517 919 ;
C 201 ; WX 612 ; N Eacute ; B 128 22 517 919 ;
C 202 ; WX 612 ; N Ecircumflex ; B 128 22 517 919 ;
C 203 ; WX 612 ; N Edieresis ; B 128 22 517 896 ;
C 204 ; WX 464 ; N Igrave ; B 88 22 376 919 ;
C 205 ; WX 464 ; N Iacute ; B 88 22 376 919 ;
C 206 ; WX 464 ; N Icircumflex ; B 81 22 382 919 ;
C 207 ; WX 464 ; N Idieresis ; B 88 22 376 896 ;
C 210 ; WX 779 ; N Ograve ; B 105 14 673 919 ;
C 211 ; WX 779 ; N Oacute ; B 105 14 673 919 ;
C 212 ; WX 779 ; N Ocircumflex ; B 105 14 673 919 ;
C 214 ; WX 779 ; N Odieresis ; B 105 14 673 896 ;
C 217 ; WX 612 ; N Ugrave ; B 97 14 514 919 ;
C 218 ; WX 612 ; N Uacute ; B 97 14 514 919 ;
C 219 ; WX 612 ; N Ucircumflex ; B 97 14 514 919 ;
C 220 ; WX 612 ; N Udieresis ; B 97 14 514 896 ;
C 224 ; WX 612 ; N agrave ; B 97 14 502 752 ;
C 225 ; WX 612 ; N aacute ; B 97 14 502 752 ;
C 226 ; WX 612 ; N acircumflex ; B 97 14 502 752 ;
C 231 ; WX 612 ; N ccedilla ; B 97 -165 507 531 ;
C 232 ; WX 612 ; N egrave ; B 83 14 507 756 ;
C 233 ; WX 612 ; N eacute ; B 83 14 507 756 ;
C 234 ; WX 612 ; N ecircumflex ; B 83 14 507 756 ;
C 235 ; WX 612 ; N edieresis ; B 83 14 507 733 ;
C 236 ; WX 417 ; N igrave ; B 61 -181 222 1003 ;
C 237 ; WX 417 ; N iacute ; B 61 -181 284 1003 ;
C 238 ; WX 417 ; N icircumflex ; B 28 -181 329 1003 ;
C 239 ; WX 417 ; N idieresis ; B 61 -181 290 980 ;
C 242 ; WX 612 ; N ograve ; B 83 14 528 752 ;
C 243 ; WX 612 ; N oacute ; B 83 14 528 752 ;
C 244 ; WX 612 ; N ocircumflex ; B 83 14 528 752 ;
C 249 ; WX 612 ; N ugrave ; B 97 13 514 752 ;
C 250 ; WX 612 ; N uacute ; B 97 13 514 752 ;
C 251 ; WX 612 ; N ucircumflex ; B 97 13 514 752 ;
C 252 ; WX 612 ; N udieresis ; B 97 13 514 730 ;
C -1 ; WX 612 ; N glyph37 ; B 83 14 334 532 ;
C -1 ; WX 223 ; N glyph44 ; B 42 567 204 745 ;
C -1 ; WX 612 ; N glyph86 ; B 153 566 486 745 ;
C -1 ; WX 612 ; N glyph89 ; B 308 577 494 756 ;
EndCharMetrics
EndFontMetrics
