StartFontMetrics 2.0
Comment Generated by FontForge 20160506
Comment Creation Date: Mon Aug 29 23:40:16 2016
FontName Ocr-Pbi-pen_x1_y1
FullName Untitled1
FamilyName Ocr-Pbi
Weight Regular
Notice (Copyright (c) 2016, antoine)
ItalicAngle 0
IsFixedPitch true
UnderlinePosition -100
UnderlineThickness 50
Version 001.000
EncodingScheme ISOLatin1Encoding
FontBBox -1 -201 625 944
CapHeight 689
XHeight 527
Ascender 747
Descender -169
StartCharMetrics 141
C 32 ; WX 611 ; N space ; B 0 0 0 0 ;
C 33 ; WX 611 ; N exclam ; B 263 22 348 690 ;
C 35 ; WX 611 ; N numbersign ; B 69 22 542 745 ;
C 37 ; WX 611 ; N percent ; B 83 14 528 753 ;
C 40 ; WX 611 ; N parenleft ; B 222 22 459 745 ;
C 41 ; WX 611 ; N parenright ; B 152 22 389 745 ;
C 42 ; WX 611 ; N asterisk ; B 82 188 528 634 ;
C 43 ; WX 611 ; N plus ; B 82 133 528 634 ;
C 44 ; WX 611 ; N comma ; B 111 -131 461 190 ;
C 45 ; WX 611 ; N hyphen ; B 82 355 528 412 ;
C 46 ; WX 611 ; N period ; B 213 22 398 176 ;
C 47 ; WX 611 ; N slash ; B 138 22 473 745 ;
C 48 ; WX 611 ; N zero ; B 83 14 528 753 ;
C 49 ; WX 611 ; N one ; B 113 22 375 745 ;
C 50 ; WX 611 ; N two ; B 99 22 514 753 ;
C 51 ; WX 611 ; N three ; B 85 14 542 745 ;
C 52 ; WX 611 ; N four ; B 82 22 528 745 ;
C 53 ; WX 611 ; N five ; B 110 17 501 745 ;
C 54 ; WX 611 ; N six ; B 82 14 528 745 ;
C 55 ; WX 611 ; N seven ; B 82 22 528 745 ;
C 56 ; WX 611 ; N eight ; B 83 14 528 753 ;
C 57 ; WX 611 ; N nine ; B 83 22 528 753 ;
C 58 ; WX 611 ; N colon ; B 213 22 398 460 ;
C 59 ; WX 611 ; N semicolon ; B 111 -131 417 460 ;
C 60 ; WX 611 ; N less ; B 83 22 528 690 ;
C 61 ; WX 611 ; N equal ; B 82 244 528 523 ;
C 62 ; WX 611 ; N greater ; B 82 22 528 690 ;
C 63 ; WX 611 ; N question ; B 124 22 490 697 ;
C 64 ; WX 611 ; N at ; B 83 14 528 753 ;
C 65 ; WX 611 ; N A ; B 77 22 534 690 ;
C 66 ; WX 611 ; N B ; B 82 22 528 690 ;
C 67 ; WX 611 ; N C ; B 116 13 517 698 ;
C 68 ; WX 611 ; N D ; B 127 22 509 690 ;
C 69 ; WX 611 ; N E ; B 127 22 517 690 ;
C 70 ; WX 611 ; N F ; B 127 22 501 690 ;
C 71 ; WX 611 ; N G ; B 94 14 511 699 ;
C 72 ; WX 611 ; N H ; B 110 22 501 690 ;
C 73 ; WX 611 ; N I ; B 138 22 473 690 ;
C 74 ; WX 611 ; N J ; B 102 14 409 690 ;
C 75 ; WX 611 ; N K ; B 97 22 528 690 ;
C 76 ; WX 611 ; N L ; B 111 22 528 690 ;
C 77 ; WX 611 ; N M ; B 83 22 528 690 ;
C 78 ; WX 611 ; N N ; B 97 22 514 690 ;
C 79 ; WX 611 ; N O ; B 86 14 525 697 ;
C 80 ; WX 611 ; N P ; B 110 22 528 689 ;
C 81 ; WX 611 ; N Q ; B 86 14 528 697 ;
C 82 ; WX 611 ; N R ; B 121 22 506 689 ;
C 83 ; WX 611 ; N S ; B 105 14 495 697 ;
C 84 ; WX 611 ; N T ; B 82 22 528 690 ;
C 85 ; WX 611 ; N U ; B 97 14 514 690 ;
C 86 ; WX 611 ; N V ; B 83 22 528 690 ;
C 87 ; WX 611 ; N W ; B 83 22 528 690 ;
C 88 ; WX 611 ; N X ; B 102 22 509 695 ;
C 89 ; WX 611 ; N Y ; B 105 22 506 690 ;
C 90 ; WX 611 ; N Z ; B 111 22 501 689 ;
C 91 ; WX 611 ; N bracketleft ; B 194 22 528 745 ;
C 93 ; WX 611 ; N bracketright ; B 82 22 417 745 ;
C 94 ; WX 611 ; N asciicircum ; B 166 605 445 745 ;
C 95 ; WX 611 ; N underscore ; B 82 -34 528 23 ;
C 96 ; WX 611 ; N grave ; B 235 605 362 745 ;
C 97 ; WX 611 ; N a ; B 83 14 528 531 ;
C 98 ; WX 611 ; N b ; B 83 14 528 745 ;
C 99 ; WX 611 ; N c ; B 97 14 501 531 ;
C 100 ; WX 611 ; N d ; B 83 14 528 745 ;
C 101 ; WX 611 ; N e ; B 83 14 501 534 ;
C 102 ; WX 611 ; N f ; B 116 22 495 745 ;
C 103 ; WX 611 ; N g ; B 83 -182 528 531 ;
C 104 ; WX 611 ; N h ; B 124 22 486 745 ;
C 105 ; WX 611 ; N i ; B 166 22 389 745 ;
C 106 ; WX 611 ; N j ; B 124 -131 389 745 ;
C 107 ; WX 611 ; N k ; B 141 22 503 745 ;
C 108 ; WX 611 ; N l ; B 222 22 473 754 ;
C 109 ; WX 611 ; N m ; B 83 22 528 531 ;
C 110 ; WX 611 ; N n ; B 97 22 514 531 ;
C 111 ; WX 611 ; N o ; B 83 14 528 531 ;
C 112 ; WX 611 ; N p ; B 83 -201 528 531 ;
C 113 ; WX 611 ; N q ; B 83 -201 528 531 ;
C 114 ; WX 611 ; N r ; B 166 22 489 531 ;
C 115 ; WX 611 ; N s ; B 131 14 484 532 ;
C 116 ; WX 611 ; N t ; B 96 22 473 745 ;
C 117 ; WX 611 ; N u ; B 97 12 514 523 ;
C 118 ; WX 611 ; N v ; B 85 22 525 523 ;
C 119 ; WX 611 ; N w ; B 86 22 525 523 ;
C 120 ; WX 611 ; N x ; B 116 22 495 523 ;
C 121 ; WX 611 ; N y ; B 82 -134 525 523 ;
C 122 ; WX 611 ; N z ; B 116 22 503 523 ;
C 123 ; WX 611 ; N braceleft ; B 83 22 528 745 ;
C 124 ; WX 611 ; N bar ; B 277 22 334 745 ;
C 125 ; WX 611 ; N braceright ; B 82 22 528 745 ;
C 168 ; WX 611 ; N dieresis ; B 194 605 417 745 ;
C 171 ; WX 611 ; N guillemotleft ; B 83 14 445 461 ;
C 180 ; WX 611 ; N acute ; B 249 605 376 745 ;
C 184 ; WX 611 ; N cedilla ; B 274 -102 364 57 ;
C 187 ; WX 611 ; N guillemotright ; B 166 14 528 461 ;
C 192 ; WX 611 ; N Agrave ; B 77 22 534 897 ;
C 193 ; WX 611 ; N Aacute ; B 77 22 534 897 ;
C 194 ; WX 611 ; N Acircumflex ; B 77 22 534 897 ;
C 195 ; WX 611 ; N Atilde ; B 0 0 0 0 ;
C 196 ; WX 611 ; N Adieresis ; B 77 22 534 897 ;
C 199 ; WX 611 ; N Ccedilla ; B 116 -140 517 698 ;
C 200 ; WX 611 ; N Egrave ; B 57 22 517 897 ;
C 201 ; WX 611 ; N Eacute ; B 127 22 517 897 ;
C 202 ; WX 611 ; N Ecircumflex ; B 16 22 517 897 ;
C 203 ; WX 611 ; N Edieresis ; B 44 22 517 897 ;
C 204 ; WX 611 ; N Igrave ; B 138 22 473 897 ;
C 205 ; WX 611 ; N Iacute ; B 138 22 473 897 ;
C 206 ; WX 611 ; N Icircumflex ; B 138 22 473 897 ;
C 207 ; WX 611 ; N Idieresis ; B 138 22 473 897 ;
C 210 ; WX 611 ; N Ograve ; B 86 14 525 897 ;
C 211 ; WX 611 ; N Oacute ; B 86 14 525 897 ;
C 212 ; WX 611 ; N Ocircumflex ; B 86 14 525 897 ;
C 213 ; WX 611 ; N Otilde ; B 0 0 0 0 ;
C 214 ; WX 611 ; N Odieresis ; B 86 14 525 897 ;
C 217 ; WX 611 ; N Ugrave ; B 97 14 514 897 ;
C 218 ; WX 611 ; N Uacute ; B 97 14 584 897 ;
C 219 ; WX 611 ; N Ucircumflex ; B 97 14 625 897 ;
C 220 ; WX 611 ; N Udieresis ; B 97 14 597 897 ;
C 224 ; WX 611 ; N agrave ; B 83 14 528 730 ;
C 225 ; WX 611 ; N aacute ; B 83 14 528 730 ;
C 226 ; WX 611 ; N acircumflex ; B 83 14 528 730 ;
C 227 ; WX 611 ; N atilde ; B 0 0 0 0 ;
C 231 ; WX 611 ; N ccedilla ; B 97 -139 501 531 ;
C 232 ; WX 611 ; N egrave ; B 83 14 501 733 ;
C 233 ; WX 611 ; N eacute ; B 83 14 501 733 ;
C 234 ; WX 611 ; N ecircumflex ; B 83 14 501 733 ;
C 235 ; WX 611 ; N edieresis ; B 83 14 501 733 ;
C 236 ; WX 611 ; N igrave ; B 166 22 389 944 ;
C 237 ; WX 611 ; N iacute ; B 166 22 445 944 ;
C 238 ; WX 611 ; N icircumflex ; B 166 22 487 944 ;
C 239 ; WX 611 ; N idieresis ; B 166 22 459 944 ;
C 242 ; WX 611 ; N ograve ; B 83 14 528 730 ;
C 243 ; WX 611 ; N oacute ; B 83 14 528 730 ;
C 244 ; WX 611 ; N ocircumflex ; B 83 14 528 730 ;
C 249 ; WX 611 ; N ugrave ; B 97 12 514 730 ;
C 250 ; WX 611 ; N uacute ; B 97 12 514 730 ;
C 251 ; WX 611 ; N ucircumflex ; B 97 12 514 730 ;
C 252 ; WX 611 ; N udieresis ; B 97 12 514 730 ;
C -1 ; WX 611 ; N glyph37 ; B 83 14 334 531 ;
C -1 ; WX 611 ; N glyph44 ; B 235 577 375 745 ;
C -1 ; WX 611 ; N glyph86 ; B -1 -200 612 801 ;
C -1 ; WX 611 ; N glyph89 ; B 338 577 483 745 ;
EndCharMetrics
EndFontMetrics
