StartFontMetrics 2.0
Comment Generated by FontForge 20161017
Comment Creation Date: Mon Nov 21 16:07:00 2016
FontName Ocr-Pbi-fil_2.3uy
FullName Untitled1
FamilyName Ocr-Pbi
Weight Regular
Notice (Copyright (c) 2016, antoine)
ItalicAngle 0
IsFixedPitch false
UnderlinePosition -100
UnderlineThickness 50
Version 001.000
EncodingScheme ISOLatin1Encoding
FontBBox 83 -188 843 902
CapHeight 674
XHeight 504
Ascender 716
Descender -187
StartCharMetrics 138
C 32 ; WX 612 ; N space ; B 0 0 0 0 ;
C 33 ; WX 371 ; N exclam ; B 211 18 265 662 ;
C 35 ; WX 612 ; N numbersign ; B 125 27 659 720 ;
C 37 ; WX 612 ; N percent ; B 131 15 654 732 ;
C 40 ; WX 612 ; N parenleft ; B 309 18 554 729 ;
C 41 ; WX 612 ; N parenright ; B 230 18 476 729 ;
C 42 ; WX 612 ; N asterisk ; B 140 201 644 592 ;
C 43 ; WX 612 ; N plus ; B 142 155 642 592 ;
C 44 ; WX 612 ; N comma ; B 153 -116 568 168 ;
C 45 ; WX 612 ; N hyphen ; B 142 361 642 386 ;
C 46 ; WX 501 ; N period ; B 227 18 486 154 ;
C 47 ; WX 612 ; N slash ; B 203 25 581 722 ;
C 48 ; WX 612 ; N zero ; B 130 15 654 732 ;
C 49 ; WX 612 ; N one ; B 174 30 458 726 ;
C 50 ; WX 612 ; N two ; B 152 18 637 733 ;
C 51 ; WX 612 ; N three ; B 144 15 671 729 ;
C 52 ; WX 612 ; N four ; B 132 30 642 723 ;
C 53 ; WX 612 ; N five ; B 175 9 618 729 ;
C 54 ; WX 612 ; N six ; B 131 15 654 727 ;
C 55 ; WX 612 ; N seven ; B 142 28 656 729 ;
C 56 ; WX 612 ; N eight ; B 130 15 654 732 ;
C 57 ; WX 612 ; N nine ; B 130 21 654 732 ;
C 58 ; WX 612 ; N colon ; B 298 18 486 434 ;
C 59 ; WX 612 ; N semicolon ; B 157 -116 530 434 ;
C 60 ; WX 612 ; N less ; B 120 20 648 672 ;
C 61 ; WX 612 ; N equal ; B 142 252 642 511 ;
C 62 ; WX 612 ; N greater ; B 136 20 664 672 ;
C 63 ; WX 612 ; N question ; B 184 18 606 678 ;
C 64 ; WX 612 ; N at ; B 131 15 654 732 ;
C 65 ; WX 677 ; N A ; B 123 26 744 667 ;
C 66 ; WX 677 ; N B ; B 131 18 737 674 ;
C 67 ; WX 779 ; N C ; B 211 15 818 678 ;
C 68 ; WX 770 ; N D ; B 230 18 810 674 ;
C 69 ; WX 612 ; N E ; B 188 18 627 674 ;
C 70 ; WX 612 ; N F ; B 188 30 606 674 ;
C 71 ; WX 677 ; N G ; B 147 14 712 678 ;
C 72 ; WX 677 ; N H ; B 172 30 695 662 ;
C 73 ; WX 464 ; N I ; B 148 18 446 674 ;
C 74 ; WX 612 ; N J ; B 155 15 500 662 ;
C 75 ; WX 612 ; N K ; B 148 21 649 672 ;
C 76 ; WX 612 ; N L ; B 166 18 642 662 ;
C 77 ; WX 779 ; N M ; B 178 30 820 668 ;
C 78 ; WX 612 ; N N ; B 148 25 636 667 ;
C 79 ; WX 779 ; N O ; B 159 15 839 678 ;
C 80 ; WX 677 ; N P ; B 172 30 737 675 ;
C 81 ; WX 677 ; N Q ; B 135 15 733 678 ;
C 82 ; WX 677 ; N R ; B 189 23 701 675 ;
C 83 ; WX 612 ; N S ; B 166 15 611 678 ;
C 84 ; WX 612 ; N T ; B 142 30 642 674 ;
C 85 ; WX 612 ; N U ; B 148 15 636 662 ;
C 86 ; WX 677 ; N V ; B 131 26 736 667 ;
C 87 ; WX 779 ; N W ; B 154 26 843 664 ;
C 88 ; WX 612 ; N X ; B 157 24 627 669 ;
C 89 ; WX 612 ; N Y ; B 161 30 623 669 ;
C 90 ; WX 612 ; N Z ; B 157 18 606 674 ;
C 91 ; WX 612 ; N bracketleft ; B 273 18 642 729 ;
C 93 ; WX 612 ; N bracketright ; B 142 18 511 729 ;
C 94 ; WX 612 ; N asciicircum ; B 240 611 544 725 ;
C 95 ; WX 612 ; N underscore ; B 142 -5 642 19 ;
C 96 ; WX 612 ; N grave ; B 329 611 437 725 ;
C 97 ; WX 612 ; N a ; B 148 14 607 514 ;
C 98 ; WX 612 ; N b ; B 131 15 654 717 ;
C 99 ; WX 612 ; N c ; B 148 14 616 514 ;
C 100 ; WX 612 ; N d ; B 131 15 654 717 ;
C 101 ; WX 612 ; N e ; B 130 15 618 519 ;
C 102 ; WX 556 ; N f ; B 150 30 563 729 ;
C 103 ; WX 612 ; N g ; B 131 -167 654 514 ;
C 104 ; WX 612 ; N h ; B 151 30 633 717 ;
C 105 ; WX 417 ; N i ; B 148 30 339 729 ;
C 106 ; WX 501 ; N j ; B 122 -116 404 729 ;
C 107 ; WX 658 ; N k ; B 218 21 694 717 ;
C 108 ; WX 417 ; N l ; B 196 18 416 710 ;
C 109 ; WX 881 ; N m ; B 158 118 842 546 ;
C 110 ; WX 612 ; N n ; B 148 30 636 514 ;
C 111 ; WX 612 ; N o ; B 131 15 654 514 ;
C 112 ; WX 612 ; N p ; B 131 -188 654 514 ;
C 113 ; WX 612 ; N q ; B 131 -188 654 514 ;
C 114 ; WX 482 ; N r ; B 166 30 528 515 ;
C 115 ; WX 556 ; N s ; B 162 15 561 516 ;
C 116 ; WX 556 ; N t ; B 125 18 535 717 ;
C 117 ; WX 612 ; N u ; B 148 13 636 499 ;
C 118 ; WX 556 ; N v ; B 83 25 630 504 ;
C 119 ; WX 779 ; N w ; B 159 24 838 501 ;
C 120 ; WX 612 ; N x ; B 176 23 608 506 ;
C 121 ; WX 612 ; N y ; B 133 -119 648 505 ;
C 122 ; WX 612 ; N z ; B 160 18 610 511 ;
C 123 ; WX 612 ; N braceleft ; B 142 18 642 729 ;
C 124 ; WX 612 ; N bar ; B 380 30 404 717 ;
C 125 ; WX 612 ; N braceright ; B 142 18 642 729 ;
C 168 ; WX 612 ; N dieresis ; B 273 619 511 717 ;
C 171 ; WX 612 ; N guillemotleft ; B 123 18 542 431 ;
C 180 ; WX 612 ; N acute ; B 347 611 455 725 ;
C 184 ; WX 612 ; N cedilla ; B 364 -106 456 34 ;
C 187 ; WX 612 ; N guillemotright ; B 242 18 661 431 ;
C 192 ; WX 677 ; N Agrave ; B 123 26 744 851 ;
C 193 ; WX 677 ; N Aacute ; B 123 26 744 851 ;
C 194 ; WX 677 ; N Acircumflex ; B 123 26 744 851 ;
C 196 ; WX 677 ; N Adieresis ; B 123 26 744 835 ;
C 199 ; WX 779 ; N Ccedilla ; B 211 -119 818 678 ;
C 200 ; WX 612 ; N Egrave ; B 188 18 627 851 ;
C 201 ; WX 612 ; N Eacute ; B 188 18 627 851 ;
C 202 ; WX 612 ; N Ecircumflex ; B 188 18 627 851 ;
C 203 ; WX 612 ; N Edieresis ; B 188 18 627 835 ;
C 204 ; WX 464 ; N Igrave ; B 148 18 446 851 ;
C 205 ; WX 464 ; N Iacute ; B 148 18 446 851 ;
C 206 ; WX 464 ; N Icircumflex ; B 146 18 449 851 ;
C 207 ; WX 464 ; N Idieresis ; B 148 18 446 835 ;
C 210 ; WX 779 ; N Ograve ; B 159 15 839 851 ;
C 211 ; WX 779 ; N Oacute ; B 159 15 839 851 ;
C 212 ; WX 779 ; N Ocircumflex ; B 159 15 839 851 ;
C 214 ; WX 779 ; N Odieresis ; B 159 15 839 835 ;
C 217 ; WX 612 ; N Ugrave ; B 148 15 636 851 ;
C 218 ; WX 612 ; N Uacute ; B 148 15 636 851 ;
C 219 ; WX 612 ; N Ucircumflex ; B 148 15 636 851 ;
C 220 ; WX 612 ; N Udieresis ; B 148 15 636 835 ;
C 224 ; WX 612 ; N agrave ; B 148 14 607 687 ;
C 225 ; WX 612 ; N aacute ; B 148 14 607 687 ;
C 226 ; WX 612 ; N acircumflex ; B 148 14 607 687 ;
C 231 ; WX 612 ; N ccedilla ; B 148 -119 616 514 ;
C 232 ; WX 612 ; N egrave ; B 130 15 618 692 ;
C 233 ; WX 612 ; N eacute ; B 130 15 618 692 ;
C 234 ; WX 612 ; N ecircumflex ; B 130 15 618 692 ;
C 235 ; WX 612 ; N edieresis ; B 130 15 618 676 ;
C 236 ; WX 417 ; N igrave ; B 148 30 339 902 ;
C 237 ; WX 417 ; N iacute ; B 148 30 401 902 ;
C 238 ; WX 417 ; N icircumflex ; B 148 30 464 902 ;
C 239 ; WX 417 ; N idieresis ; B 148 30 431 886 ;
C 242 ; WX 612 ; N ograve ; B 131 15 654 687 ;
C 243 ; WX 612 ; N oacute ; B 131 15 654 687 ;
C 244 ; WX 612 ; N ocircumflex ; B 131 15 654 687 ;
C 249 ; WX 612 ; N ugrave ; B 148 13 636 687 ;
C 250 ; WX 612 ; N uacute ; B 148 13 636 687 ;
C 251 ; WX 612 ; N ucircumflex ; B 148 13 636 687 ;
C 252 ; WX 612 ; N udieresis ; B 148 13 636 671 ;
C -1 ; WX 612 ; N glyph37 ; B 131 14 404 515 ;
C -1 ; WX 612 ; N glyph44 ; B 338 584 469 729 ;
C -1 ; WX 612 ; N glyph86 ; B 254 584 555 729 ;
C -1 ; WX 612 ; N glyph89 ; B 412 580 559 725 ;
EndCharMetrics
EndFontMetrics
