<?xml version="1.0" encoding="UTF-8" standalone="no"?>
<!-- Generator: Adobe Illustrator 16.0.0, SVG Export Plug-In . SVG Version: 6.00 Build 0)  -->

<svg
   xmlns:dc="http://purl.org/dc/elements/1.1/"
   xmlns:cc="http://creativecommons.org/ns#"
   xmlns:rdf="http://www.w3.org/1999/02/22-rdf-syntax-ns#"
   xmlns:svg="http://www.w3.org/2000/svg"
   xmlns="http://www.w3.org/2000/svg"
   xmlns:sodipodi="http://sodipodi.sourceforge.net/DTD/sodipodi-0.dtd"
   xmlns:inkscape="http://www.inkscape.org/namespaces/inkscape"
   version="1.1"
   id="Layer_1"
   x="0px"
   y="0px"
   width="1318.064px"
   height="2153.925px"
   viewBox="0 0 1318.064 2153.925"
   enable-background="new 0 0 1318.064 2153.925"
   xml:space="preserve"
   inkscape:version="0.91 r13725"
   sodipodi:docname="b_g.svg"><metadata
     id="metadata11"><rdf:RDF><cc:Work
         rdf:about=""><dc:format>image/svg+xml</dc:format><dc:type
           rdf:resource="http://purl.org/dc/dcmitype/StillImage" /></cc:Work></rdf:RDF></metadata><defs
     id="defs9" /><sodipodi:namedview
     pagecolor="#ffffff"
     bordercolor="#666666"
     borderopacity="1"
     objecttolerance="10"
     gridtolerance="10"
     guidetolerance="10"
     inkscape:pageopacity="0"
     inkscape:pageshadow="2"
     inkscape:window-width="799"
     inkscape:window-height="480"
     id="namedview7"
     showgrid="false"
     inkscape:zoom="0.10956742"
     inkscape:cx="659.03198"
     inkscape:cy="1076.9625"
     inkscape:window-x="1757"
     inkscape:window-y="46"
     inkscape:window-maximized="0"
     inkscape:current-layer="Layer_1" /><path
     fill="none"
     stroke="#000000"
     stroke-width="119.5514"
     stroke-linecap="round"
     stroke-linejoin="round"
     stroke-miterlimit="10"
     d="  M1076.962,657.813v896.635c0,213.654-122.163,411.848-322.788,478.205c-164.565,54.432-345.692,3.316-457.523-129.115"
     id="path3"
     style="stroke-width:0;stroke-miterlimit:10;stroke-dasharray:none" /><path
     fill="none"
     stroke="#000000"
     stroke-width="119.5514"
     stroke-linecap="round"
     stroke-linejoin="round"
     stroke-miterlimit="10"
     d="  M658.532,640.734c-131.23,0-254.093,63.925-330.557,170.617c-62.841,87.684-87.873,195.453-87.873,303.318  c0,107.867,25.032,215.635,87.873,303.32c76.464,106.691,199.326,170.617,330.557,170.617s254.093-63.926,330.557-170.617  c62.841-87.686,87.873-195.453,87.873-303.32c0-107.865-25.032-215.634-87.873-303.318  C912.625,704.659,789.763,640.734,658.532,640.734z"
     id="path5"
     style="stroke-width:0;stroke-miterlimit:10;stroke-dasharray:none" /></svg>