<?xml version="1.0" encoding="utf-8"?>
<!-- Generator: Adobe Illustrator 16.0.0, SVG Export Plug-In . SVG Version: 6.00 Build 0)  -->
<!DOCTYPE svg PUBLIC "-//W3C//DTD SVG 1.1//EN" "http://www.w3.org/Graphics/SVG/1.1/DTD/svg11.dtd">
<svg version="1.1" id="Layer_1" xmlns="http://www.w3.org/2000/svg" xmlns:xlink="http://www.w3.org/1999/xlink" x="0px" y="0px"
	 width="1318.064px" height="2153.925px" viewBox="0 0 1318.064 2153.925" enable-background="new 0 0 1318.064 2153.925"
	 xml:space="preserve">
<g transform="matrix(0.707107,-0.707107,0.707107,0.707107,0.000000,0.000000)">
	
		<path fill="none" stroke="#000000" stroke-width="119.5515" stroke-linecap="round" stroke-linejoin="round" stroke-miterlimit="10" d="
		M-1309.794,1649.35L-295.366,634.922"/>
</g>
<g transform="matrix(0.707107,-0.707107,0.707107,0.707107,0.000000,0.000000)">
	
		<path fill="none" stroke="#000000" stroke-width="119.5515" stroke-linecap="round" stroke-linejoin="round" stroke-miterlimit="10" d="
		M12.585,918.72c-93.848-93.848-229.104-131.741-359.818-107.66c-110.36,20.332-206.945,82.673-286.276,162.004
		c-79.331,79.331-141.672,175.916-162.005,286.276c-24.082,130.714,13.811,265.969,107.66,359.818
		c93.848,93.848,229.104,131.741,359.819,107.661c110.36-20.333,206.945-82.673,286.276-162.005
		c79.331-79.331,141.672-175.916,162.004-286.276C144.327,1147.824,106.434,1012.568,12.585,918.72z"/>
</g>
</svg>
