<?xml version="1.0" encoding="utf-8"?>
<!-- Generator: Adobe Illustrator 16.0.0, SVG Export Plug-In . SVG Version: 6.00 Build 0)  -->
<!DOCTYPE svg PUBLIC "-//W3C//DTD SVG 1.1//EN" "http://www.w3.org/Graphics/SVG/1.1/DTD/svg11.dtd">
<svg version="1.1" id="Layer_1" xmlns="http://www.w3.org/2000/svg" xmlns:xlink="http://www.w3.org/1999/xlink" x="0px" y="0px"
	 width="1318.064px" height="2153.925px" viewBox="0 0 1318.064 2153.925" enable-background="new 0 0 1318.064 2153.925"
	 xml:space="preserve">
<path fill="none" stroke="#000000" stroke-width="119.5514" stroke-linecap="round" stroke-linejoin="round" stroke-miterlimit="10" d="
	M373.679,1153.943h284.853"/>
<path fill="none" stroke="#000000" stroke-width="119.5514" stroke-linecap="round" stroke-linejoin="round" stroke-miterlimit="10" d="
	M1088.917,1614.224L686.468,299.159h-56.911L228.147,1614.224"/>
<path fill="none" stroke="#000000" stroke-width="119.5514" stroke-linecap="round" stroke-linejoin="round" stroke-miterlimit="10" d="
	M943.385,1153.943H638.53"/>
</svg>
