<?xml version="1.0" encoding="utf-8"?>
<!-- Generator: Adobe Illustrator 16.0.0, SVG Export Plug-In . SVG Version: 6.00 Build 0)  -->
<!DOCTYPE svg PUBLIC "-//W3C//DTD SVG 1.1//EN" "http://www.w3.org/Graphics/SVG/1.1/DTD/svg11.dtd">
<svg version="1.1" id="Layer_1" xmlns="http://www.w3.org/2000/svg" xmlns:xlink="http://www.w3.org/1999/xlink" x="0px" y="0px"
	 width="1318.064px" height="2153.925px" viewBox="0 0 1318.064 2153.925" enable-background="new 0 0 1318.064 2153.925"
	 xml:space="preserve">
<path fill="none" stroke="#000000" stroke-width="119.5514" stroke-linecap="round" stroke-linejoin="round" stroke-miterlimit="10" d="
	M299.878,979.343h358.654c113.267,0,229.595-19.741,313.822-95.226c69.068-61.898,104.607-152.018,104.607-244.866
	s-35.539-182.968-104.607-244.867c-84.228-75.484-200.556-95.225-313.822-95.225H299.878v1315.065"/>
</svg>
