<?xml version="1.0" encoding="utf-8"?>
<!-- Generator: Adobe Illustrator 16.0.0, SVG Export Plug-In . SVG Version: 6.00 Build 0)  -->
<!DOCTYPE svg PUBLIC "-//W3C//DTD SVG 1.1//EN" "http://www.w3.org/Graphics/SVG/1.1/DTD/svg11.dtd">
<svg version="1.1" id="Layer_1" xmlns="http://www.w3.org/2000/svg" xmlns:xlink="http://www.w3.org/1999/xlink" x="0px" y="0px"
	 width="1318.064px" height="2153.925px" viewBox="0 0 1318.064 2153.925" enable-background="new 0 0 1318.064 2153.925"
	 xml:space="preserve">
<g transform="matrix(0.707107,-0.707107,0.707107,0.707107,0.000000,0.000000)">
	
		<path fill="none" stroke="#1D1D1B" stroke-width="119.5515" stroke-linecap="round" stroke-linejoin="round" stroke-miterlimit="10" d="
		M-274.232,994.198c-62.872-62.872-156.832-78.401-243.733-56.787c-79.684,19.817-148.092,68.203-206.118,126.229
		s-106.41,126.433-126.227,206.116c-21.614,86.902-6.086,180.861,56.787,243.734s156.833,78.402,243.734,56.787
		c79.683-19.817,148.092-68.203,206.116-126.227c58.026-58.026,106.411-126.434,126.229-206.118
		C-195.83,1151.031-211.36,1057.071-274.232,994.198z"/>
</g>
<g transform="matrix(0.707107,-0.707107,0.707107,0.707107,0.000000,0.000000)">
	
		<path fill="none" stroke="#1D1D1B" stroke-width="119.5515" stroke-linecap="round" stroke-linejoin="round" stroke-miterlimit="10" d="
		M-84.027,1184.404l-422.678,422.678c-49.792,59.608-45.863,147.363,9.057,202.282c54.92,54.919,142.674,58.849,202.282,9.057
		l422.678-422.678c105.956-105.956,211.706-214.819,278.289-349.302c48.015-96.979,73.527-206.437,42.946-310.076
		c-17.645-59.798-53.177-112.297-97.82-155.787c-44.437-43.29-97.278-77.171-155.787-97.82
		c-157.911-55.73-333.838-12.578-448.039,109.897"/>
</g>
</svg>
