<?xml version="1.0" encoding="utf-8"?>
<!-- Generator: Adobe Illustrator 16.0.0, SVG Export Plug-In . SVG Version: 6.00 Build 0)  -->
<!DOCTYPE svg PUBLIC "-//W3C//DTD SVG 1.1//EN" "http://www.w3.org/Graphics/SVG/1.1/DTD/svg11.dtd">
<svg version="1.1" id="Layer_1" xmlns="http://www.w3.org/2000/svg" xmlns:xlink="http://www.w3.org/1999/xlink" x="0px" y="0px"
	 width="1318.064px" height="2153.925px" viewBox="0 0 1318.064 2153.925" enable-background="new 0 0 1318.064 2153.925"
	 xml:space="preserve">
<g transform="matrix(0.707107,-0.707107,0.707107,0.707107,0.000000,0.000000)">
	
		<path fill="none" stroke="#1D1D1B" stroke-width="119.5515" stroke-linecap="round" stroke-linejoin="round" stroke-miterlimit="10" d="
		M-379.901,1902.956l-126.804-126.804c-85.878-81.721-111.243-208.542-63.402-317.008
		c62.857-142.508,242.913-219.996,253.607-380.411c7.25-108.738-70.358-197.162-147.937-274.741
		c77.567,77.567,166.007,155.088,274.74,147.937C3.265,939.241,80.9,682.29,271.022,660.283
		c89.564-10.367,172.543,37.285,236.7,101.442l126.804,126.804"/>
</g>
</svg>
