<?xml version="1.0" encoding="utf-8"?>
<!-- Generator: Adobe Illustrator 16.0.0, SVG Export Plug-In . SVG Version: 6.00 Build 0)  -->
<!DOCTYPE svg PUBLIC "-//W3C//DTD SVG 1.1//EN" "http://www.w3.org/Graphics/SVG/1.1/DTD/svg11.dtd">
<svg version="1.1" id="Layer_1" xmlns="http://www.w3.org/2000/svg" xmlns:xlink="http://www.w3.org/1999/xlink" x="0px" y="0px"
	 width="1318.064px" height="2153.925px" viewBox="0 0 1318.064 2153.925" enable-background="new 0 0 1318.064 2153.925"
	 xml:space="preserve">
<path fill="none" stroke="#1D1D1B" stroke-width="119.5514" stroke-linecap="round" stroke-linejoin="round" stroke-miterlimit="10" d="
	M628.645,1614.224v-59.775h59.775v59.775H628.645z"/>
<path fill="none" stroke="#1D1D1B" stroke-width="119.5514" stroke-linecap="round" stroke-linejoin="round" stroke-miterlimit="10" d="
	M658.532,1195.794c-2.677-19.836-2.677-39.939,0-59.775c27.257-201.998,281.769-283.16,328.767-478.206
	c23.5-97.528-11.83-198.429-82.191-270.528c-64.84-66.442-153.735-103.565-246.575-105.205
	c-174.5-3.082-328.767,118.745-328.767,286.069"/>
</svg>
