<?xml version="1.0" encoding="UTF-8" standalone="no"?>
<!-- Created by MetaPost 1.9991 on 2017.02.13:1813 -->

<svg
   xmlns:dc="http://purl.org/dc/elements/1.1/"
   xmlns:cc="http://creativecommons.org/ns#"
   xmlns:rdf="http://www.w3.org/1999/02/22-rdf-syntax-ns#"
   xmlns:svg="http://www.w3.org/2000/svg"
   xmlns="http://www.w3.org/2000/svg"
   xmlns:sodipodi="http://sodipodi.sourceforge.net/DTD/sodipodi-0.dtd"
   xmlns:inkscape="http://www.inkscape.org/namespaces/inkscape"
   version="1.1"
   width="1317.065308"
   height="2153.925049"
   viewBox="0 0 1317.065308 2153.925049"
   id="svg10"
   sodipodi:docname="b_a.svg"
   inkscape:version="0.92.0 r">
  <metadata
     id="metadata16">
    <rdf:RDF>
      <cc:Work
         rdf:about="">
        <dc:format>image/svg+xml</dc:format>
        <dc:type
           rdf:resource="http://purl.org/dc/dcmitype/StillImage" />
      </cc:Work>
    </rdf:RDF>
  </metadata>
  <defs
     id="defs14" />
  <sodipodi:namedview
     pagecolor="#ffffff"
     bordercolor="#666666"
     borderopacity="1"
     objecttolerance="10"
     gridtolerance="10"
     guidetolerance="10"
     inkscape:pageopacity="0"
     inkscape:pageshadow="2"
     inkscape:window-width="1364"
     inkscape:window-height="730"
     id="namedview12"
     showgrid="false"
     inkscape:zoom="0.10956742"
     inkscape:cx="658.53265"
     inkscape:cy="1076.9625"
     inkscape:window-x="0"
     inkscape:window-y="18"
     inkscape:window-maximized="0"
     inkscape:current-layer="svg10" />
  <!-- Original BoundingBox: -1.000000 -479.205566 1316.065308 1674.719482 -->
  <path
     style="color:#000000;font-style:normal;font-variant:normal;font-weight:normal;font-stretch:normal;font-size:medium;line-height:normal;font-family:sans-serif;font-variant-ligatures:normal;font-variant-position:normal;font-variant-caps:normal;font-variant-numeric:normal;font-variant-alternates:normal;font-feature-settings:normal;text-indent:0;text-align:start;text-decoration:none;text-decoration-line:none;text-decoration-style:solid;text-decoration-color:#000000;letter-spacing:normal;word-spacing:normal;text-transform:none;writing-mode:lr-tb;direction:ltr;text-orientation:mixed;dominant-baseline:auto;baseline-shift:baseline;text-anchor:start;white-space:normal;shape-padding:0;clip-rule:nonzero;display:inline;overflow:visible;visibility:visible;opacity:1;isolation:auto;mix-blend-mode:normal;color-interpolation:sRGB;color-interpolation-filters:linearRGB;solid-color:#000000;solid-opacity:1;vector-effect:none;fill:#000000;fill-opacity:1;fill-rule:nonzero;stroke:none;stroke-width:159.40202332;stroke-linecap:round;stroke-linejoin:round;stroke-miterlimit:10;stroke-dasharray:none;stroke-dashoffset:0;stroke-opacity:1;color-rendering:auto;image-rendering:auto;shape-rendering:auto;text-rendering:auto;enable-background:accumulate"
     d="M 646.31836 575.02148 C 641.38237 574.99168 636.45331 575.02714 631.53125 575.12891 C 483.86943 578.18194 342.94826 640.19717 240.82227 748.00195 A 79.708982 79.708982 0 1 0 356.54297 857.62695 C 434.18409 775.66854 543.08538 730.92489 655.91992 734.625 C 741.04221 737.41638 818.41521 768.68559 865.9707 826.91406 C 901.71002 870.67443 919.55469 929.44794 919.55469 992.55664 L 919.55469 1050.7129 C 820.83238 1014.9868 716.3457 996.54102 610.71289 996.54102 C 497.23452 996.54113 373.62914 1026.174 284.375 1118.0605 C 225.44386 1178.7297 190.28902 1260.2161 190.28906 1346.6562 C 190.28904 1433.4681 226.22411 1514.1822 283.82031 1574.6777 C 371.72657 1667.009 496.1415 1702.6819 614.74805 1696.6699 C 727.91441 1690.9339 833.99525 1649.402 919.55469 1581.2305 L 919.55469 1594.2988 A 79.708982 79.708982 0 1 0 1078.9551 1594.2988 L 1078.9551 1360.1309 A 79.708982 79.708982 0 0 0 1078.9551 1345.0977 L 1078.9551 1185.502 A 79.708982 79.708982 0 0 0 1078.9551 1161.6777 L 1078.9551 992.55664 C 1078.9551 899.35656 1052.5391 803.35481 989.43164 726.08398 C 906.72993 624.82136 782.35936 579.28354 661.14453 575.30859 C 656.19727 575.14636 651.25435 575.05129 646.31836 575.02148 z M 610.71289 1155.9434 C 717.41906 1155.9434 822.69434 1178.773 919.55469 1222.6719 L 919.55469 1335.2988 C 858.97918 1453.4314 740.12455 1530.7085 606.67773 1537.4727 C 525.30987 1541.5971 449.08724 1517.0931 399.26758 1464.7656 C 367.56244 1431.4645 349.69139 1389.2987 349.69141 1346.6562 C 349.69139 1303.5089 367.33111 1261.4343 398.71484 1229.125 C 447.79692 1178.5953 525.14738 1155.9434 610.71289 1155.9434 z "
     id="path2" />
</svg>
