<?xml version="1.0" encoding="UTF-8" standalone="no"?>
<!-- Created by MetaPost 1.9991 on 2017.02.13:1813 -->

<svg
   xmlns:dc="http://purl.org/dc/elements/1.1/"
   xmlns:cc="http://creativecommons.org/ns#"
   xmlns:rdf="http://www.w3.org/1999/02/22-rdf-syntax-ns#"
   xmlns:svg="http://www.w3.org/2000/svg"
   xmlns="http://www.w3.org/2000/svg"
   xmlns:sodipodi="http://sodipodi.sourceforge.net/DTD/sodipodi-0.dtd"
   xmlns:inkscape="http://www.inkscape.org/namespaces/inkscape"
   version="1.1"
   width="1317.065308"
   height="2153.925049"
   viewBox="0 0 1317.065308 2153.925049"
   id="svg10"
   sodipodi:docname="b_b.svg"
   inkscape:version="0.92.0 r">
  <metadata
     id="metadata16">
    <rdf:RDF>
      <cc:Work
         rdf:about="">
        <dc:format>image/svg+xml</dc:format>
        <dc:type
           rdf:resource="http://purl.org/dc/dcmitype/StillImage" />
      </cc:Work>
    </rdf:RDF>
  </metadata>
  <defs
     id="defs14" />
  <sodipodi:namedview
     pagecolor="#ffffff"
     bordercolor="#666666"
     borderopacity="1"
     objecttolerance="10"
     gridtolerance="10"
     guidetolerance="10"
     inkscape:pageopacity="0"
     inkscape:pageshadow="2"
     inkscape:window-width="1364"
     inkscape:window-height="730"
     id="namedview12"
     showgrid="false"
     inkscape:zoom="0.10956742"
     inkscape:cx="658.53265"
     inkscape:cy="1076.9625"
     inkscape:window-x="0"
     inkscape:window-y="18"
     inkscape:window-maximized="0"
     inkscape:current-layer="svg10" />
  <!-- Original BoundingBox: -1.000000 -479.205566 1316.065308 1674.719482 -->
  <path
     style="color:#000000;font-style:normal;font-variant:normal;font-weight:normal;font-stretch:normal;font-size:medium;line-height:normal;font-family:sans-serif;font-variant-ligatures:normal;font-variant-position:normal;font-variant-caps:normal;font-variant-numeric:normal;font-variant-alternates:normal;font-feature-settings:normal;text-indent:0;text-align:start;text-decoration:none;text-decoration-line:none;text-decoration-style:solid;text-decoration-color:#000000;letter-spacing:normal;word-spacing:normal;text-transform:none;writing-mode:lr-tb;direction:ltr;text-orientation:mixed;dominant-baseline:auto;baseline-shift:baseline;text-anchor:start;white-space:normal;shape-padding:0;clip-rule:nonzero;display:inline;overflow:visible;visibility:visible;opacity:1;isolation:auto;mix-blend-mode:normal;color-interpolation:sRGB;color-interpolation-filters:linearRGB;solid-color:#000000;solid-opacity:1;vector-effect:none;fill:#000000;fill-opacity:1;fill-rule:nonzero;stroke:none;stroke-width:159.40202332;stroke-linecap:round;stroke-linejoin:round;stroke-miterlimit:10;stroke-dasharray:none;stroke-dashoffset:0;stroke-opacity:1;color-rendering:auto;image-rendering:auto;shape-rendering:auto;text-rendering:auto;enable-background:accumulate"
     d="M 238.90234 118.70508 A 79.708982 79.708982 0 0 0 160.40234 199.5332 L 160.40234 1136.0195 L 160.40234 1594.2988 A 79.708982 79.708982 0 1 0 319.80469 1594.2988 L 319.80469 1556.8711 C 409.25058 1644.9128 530.15982 1696.7714 658.5332 1696.7715 C 816.70395 1696.7714 963.54486 1618.0458 1054.1621 1489.9121 C 1129.3274 1383.6278 1156.664 1257.3563 1156.6641 1136.0195 C 1156.664 1014.6826 1129.3273 888.40926 1054.1621 782.125 C 963.54485 653.99135 816.70404 575.26562 658.5332 575.26562 C 530.15981 575.26564 409.25058 627.12434 319.80469 715.16602 L 319.80469 199.5332 A 79.708982 79.708982 0 0 0 238.90234 118.70508 z M 658.5332 734.66797 C 763.80957 734.66796 862.4234 787.07129 924.01758 874.16602 C 975.09888 946.39544 997.26163 1038.7444 997.26172 1136.0195 C 997.26163 1233.2944 975.09886 1325.6418 924.01758 1397.8711 C 862.42344 1484.9658 763.80962 1537.3691 658.5332 1537.3691 C 553.25672 1537.3691 454.64299 1484.9658 393.04883 1397.8711 C 341.96759 1325.6417 319.80468 1233.2944 319.80469 1136.0195 C 319.80469 1038.7446 341.96753 946.39544 393.04883 874.16602 C 454.64301 787.07127 553.2568 734.66798 658.5332 734.66797 z "
     id="path2" />
</svg>
