<?xml version="1.0" encoding="UTF-8" standalone="no"?>
<!-- Created by MetaPost 1.9991 on 2017.02.13:1813 -->

<svg
   xmlns:dc="http://purl.org/dc/elements/1.1/"
   xmlns:cc="http://creativecommons.org/ns#"
   xmlns:rdf="http://www.w3.org/1999/02/22-rdf-syntax-ns#"
   xmlns:svg="http://www.w3.org/2000/svg"
   xmlns="http://www.w3.org/2000/svg"
   xmlns:sodipodi="http://sodipodi.sourceforge.net/DTD/sodipodi-0.dtd"
   xmlns:inkscape="http://www.inkscape.org/namespaces/inkscape"
   version="1.1"
   width="1317.065308"
   height="2153.925049"
   viewBox="0 0 1317.065308 2153.925049"
   id="svg26"
   sodipodi:docname="hangul_syllableham.svg"
   inkscape:version="0.92.0 r">
  <metadata
     id="metadata32">
    <rdf:RDF>
      <cc:Work
         rdf:about="">
        <dc:format>image/svg+xml</dc:format>
        <dc:type
           rdf:resource="http://purl.org/dc/dcmitype/StillImage" />
      </cc:Work>
    </rdf:RDF>
  </metadata>
  <defs
     id="defs30" />
  <sodipodi:namedview
     pagecolor="#ffffff"
     bordercolor="#666666"
     borderopacity="1"
     objecttolerance="10"
     gridtolerance="10"
     guidetolerance="10"
     inkscape:pageopacity="0"
     inkscape:pageshadow="2"
     inkscape:window-width="1364"
     inkscape:window-height="730"
     id="namedview28"
     showgrid="false"
     inkscape:zoom="0.10956742"
     inkscape:cx="658.53265"
     inkscape:cy="1076.9625"
     inkscape:window-x="0"
     inkscape:window-y="18"
     inkscape:window-maximized="0"
     inkscape:current-layer="svg26" />
  <!-- Original BoundingBox: -1.000000 -479.205566 1316.065308 1674.719482 -->
  <path
     style="color:#000000;font-style:normal;font-variant:normal;font-weight:normal;font-stretch:normal;font-size:medium;line-height:normal;font-family:sans-serif;font-variant-ligatures:normal;font-variant-position:normal;font-variant-caps:normal;font-variant-numeric:normal;font-variant-alternates:normal;font-feature-settings:normal;text-indent:0;text-align:start;text-decoration:none;text-decoration-line:none;text-decoration-style:solid;text-decoration-color:#000000;letter-spacing:normal;word-spacing:normal;text-transform:none;writing-mode:lr-tb;direction:ltr;text-orientation:mixed;dominant-baseline:auto;baseline-shift:baseline;text-anchor:start;white-space:normal;shape-padding:0;clip-rule:nonzero;display:inline;overflow:visible;visibility:visible;opacity:1;isolation:auto;mix-blend-mode:normal;color-interpolation:sRGB;color-interpolation-filters:linearRGB;solid-color:#000000;solid-opacity:1;vector-effect:none;fill:#000000;fill-opacity:1;fill-rule:nonzero;stroke:none;stroke-width:159.40202332;stroke-linecap:round;stroke-linejoin:round;stroke-miterlimit:10;stroke-dasharray:none;stroke-dashoffset:0;stroke-opacity:1;color-rendering:auto;image-rendering:auto;shape-rendering:auto;text-rendering:auto;enable-background:accumulate"
     d="M 986.09766 170.50781 A 79.708982 79.708982 0 0 0 907.59766 251.33398 L 907.59766 650.86719 A 79.708982 79.708982 0 0 0 907.59766 676.52344 L 907.59766 1076.2422 A 79.708982 79.708982 0 1 0 1067 1076.2422 L 1067 743.49023 L 1196.5137 743.49023 A 79.708982 79.708982 0 1 0 1196.5137 584.08789 L 1067 584.08789 L 1067 251.33398 A 79.708982 79.708982 0 0 0 986.09766 170.50781 z M 299.87891 239.38281 A 79.708982 79.708982 0 1 0 299.87891 398.78516 L 658.5332 398.78516 A 79.708982 79.708982 0 1 0 658.5332 239.38281 L 299.87891 239.38281 z M 180.32617 434.65039 A 79.708982 79.708982 0 1 0 180.32617 594.05273 L 807.97266 594.05273 A 79.708982 79.708982 0 1 0 807.97266 434.65039 L 180.32617 434.65039 z M 479.20508 637.88867 C 396.45909 637.88867 311.61858 650.76101 238.35547 688.2207 C 165.09236 725.6804 100.62695 801.34759 100.62695 896.91602 C 100.62695 992.48442 165.09237 1068.1516 238.35547 1105.6113 C 311.61857 1143.071 396.4591 1155.9433 479.20508 1155.9434 C 561.95104 1155.9433 646.79355 1143.071 720.05664 1105.6113 C 793.31973 1068.1516 857.78512 992.48441 857.78516 896.91602 C 857.78514 801.34759 793.31975 725.6804 720.05664 688.2207 C 646.79353 650.761 561.95106 637.88867 479.20508 637.88867 z M 479.20508 797.28906 C 543.46595 797.28906 608.06386 809.98863 647.48828 830.14648 C 686.9127 850.30434 698.38281 864.30043 698.38281 896.91602 C 698.3828 929.53154 686.91271 943.52769 647.48828 963.68555 C 608.06385 983.84341 543.46596 996.54293 479.20508 996.54297 C 414.94417 996.54293 350.34629 983.84341 310.92188 963.68555 C 271.49744 943.52769 260.02734 929.53155 260.02734 896.91602 C 260.02734 864.30044 271.49745 850.30433 310.92188 830.14648 C 350.34629 809.98864 414.9442 797.28906 479.20508 797.28906 z M 299.87891 1235.6445 A 79.708982 79.708982 0 0 0 220.17773 1315.3457 L 220.17773 1793.5508 A 79.708982 79.708982 0 0 0 299.87891 1873.252 L 1017.1875 1873.252 A 79.708982 79.708982 0 0 0 1096.8887 1793.5508 L 1096.8887 1315.3457 A 79.708982 79.708982 0 0 0 1017.1875 1235.6445 L 299.87891 1235.6445 z M 379.58008 1395.0469 L 937.48633 1395.0469 L 937.48633 1713.8496 L 379.58008 1713.8496 L 379.58008 1395.0469 z "
     id="path2" />
</svg>
