<?xml version="1.0" encoding="UTF-8" standalone="no"?>
<!-- Created by MetaPost 1.9991 on 2017.02.13:1813 -->

<svg
   xmlns:dc="http://purl.org/dc/elements/1.1/"
   xmlns:cc="http://creativecommons.org/ns#"
   xmlns:rdf="http://www.w3.org/1999/02/22-rdf-syntax-ns#"
   xmlns:svg="http://www.w3.org/2000/svg"
   xmlns="http://www.w3.org/2000/svg"
   xmlns:sodipodi="http://sodipodi.sourceforge.net/DTD/sodipodi-0.dtd"
   xmlns:inkscape="http://www.inkscape.org/namespaces/inkscape"
   version="1.1"
   width="1317.065308"
   height="2153.925049"
   viewBox="0 0 1317.065308 2153.925049"
   id="svg14"
   sodipodi:docname="hangul_syllablego.svg"
   inkscape:version="0.92.0 r">
  <metadata
     id="metadata20">
    <rdf:RDF>
      <cc:Work
         rdf:about="">
        <dc:format>image/svg+xml</dc:format>
        <dc:type
           rdf:resource="http://purl.org/dc/dcmitype/StillImage" />
      </cc:Work>
    </rdf:RDF>
  </metadata>
  <defs
     id="defs18" />
  <sodipodi:namedview
     pagecolor="#ffffff"
     bordercolor="#666666"
     borderopacity="1"
     objecttolerance="10"
     gridtolerance="10"
     guidetolerance="10"
     inkscape:pageopacity="0"
     inkscape:pageshadow="2"
     inkscape:window-width="1364"
     inkscape:window-height="730"
     id="namedview16"
     showgrid="false"
     inkscape:zoom="0.10956742"
     inkscape:cx="658.53265"
     inkscape:cy="1076.9625"
     inkscape:window-x="0"
     inkscape:window-y="18"
     inkscape:window-maximized="0"
     inkscape:current-layer="svg14" />
  <!-- Original BoundingBox: -1.000000 -479.205566 1316.065308 1674.719482 -->
  <path
     style="color:#000000;font-style:normal;font-variant:normal;font-weight:normal;font-stretch:normal;font-size:medium;line-height:normal;font-family:sans-serif;font-variant-ligatures:normal;font-variant-position:normal;font-variant-caps:normal;font-variant-numeric:normal;font-variant-alternates:normal;font-feature-settings:normal;text-indent:0;text-align:start;text-decoration:none;text-decoration-line:none;text-decoration-style:solid;text-decoration-color:#000000;letter-spacing:normal;word-spacing:normal;text-transform:none;writing-mode:lr-tb;direction:ltr;text-orientation:mixed;dominant-baseline:auto;baseline-shift:baseline;text-anchor:start;white-space:normal;shape-padding:0;clip-rule:nonzero;display:inline;overflow:visible;visibility:visible;opacity:1;isolation:auto;mix-blend-mode:normal;color-interpolation:sRGB;color-interpolation-filters:linearRGB;solid-color:#000000;solid-opacity:1;vector-effect:none;fill:#000000;fill-opacity:1;fill-rule:nonzero;stroke:none;stroke-width:159.40202332;stroke-linecap:round;stroke-linejoin:round;stroke-miterlimit:10;stroke-dasharray:none;stroke-dashoffset:0;stroke-opacity:1;color-rendering:auto;image-rendering:auto;shape-rendering:auto;text-rendering:auto;enable-background:accumulate"
     d="M 210.21484 303.90625 A 79.708982 79.708982 0 1 0 210.21484 463.30859 L 1063.9297 463.30859 C 1073.9913 596.17643 1071.9394 729.733 1057.5059 862.29883 C 1045.9948 968.02285 1026.7226 1072.7571 999.84766 1175.6543 A 79.708982 79.708982 0 1 0 1154.0762 1215.9355 C 1182.9262 1105.4765 1203.6137 993.04444 1215.9707 879.55078 C 1234.229 711.85621 1234.229 542.67504 1215.9707 374.98047 A 79.708982 79.708982 0 0 0 1136.7383 303.90625 L 210.21484 303.90625 z M 657.33203 875.86523 A 79.708982 79.708982 0 0 0 578.83203 956.69141 L 578.83203 1355.1953 L 210.21484 1355.1953 A 79.708982 79.708982 0 1 0 210.21484 1514.5977 L 645.61328 1514.5977 A 79.708982 79.708982 0 0 0 671.26758 1514.5977 L 1136.7383 1514.5977 A 79.708982 79.708982 0 1 0 1136.7383 1355.1953 L 738.23438 1355.1953 L 738.23438 956.69141 A 79.708982 79.708982 0 0 0 657.33203 875.86523 z "
     id="path2" />
</svg>
