<?xml version="1.0" encoding="UTF-8" standalone="no"?>
<!-- Created by MetaPost 1.9991 on 2017.02.13:1813 -->

<svg
   xmlns:dc="http://purl.org/dc/elements/1.1/"
   xmlns:cc="http://creativecommons.org/ns#"
   xmlns:rdf="http://www.w3.org/1999/02/22-rdf-syntax-ns#"
   xmlns:svg="http://www.w3.org/2000/svg"
   xmlns="http://www.w3.org/2000/svg"
   xmlns:sodipodi="http://sodipodi.sourceforge.net/DTD/sodipodi-0.dtd"
   xmlns:inkscape="http://www.inkscape.org/namespaces/inkscape"
   version="1.1"
   width="1317.065308"
   height="2153.925049"
   viewBox="0 0 1317.065308 2153.925049"
   id="svg6"
   sodipodi:docname="n_2.svg"
   inkscape:version="0.92.0 r">
  <metadata
     id="metadata12">
    <rdf:RDF>
      <cc:Work
         rdf:about="">
        <dc:format>image/svg+xml</dc:format>
        <dc:type
           rdf:resource="http://purl.org/dc/dcmitype/StillImage" />
      </cc:Work>
    </rdf:RDF>
  </metadata>
  <defs
     id="defs10" />
  <sodipodi:namedview
     pagecolor="#ffffff"
     bordercolor="#666666"
     borderopacity="1"
     objecttolerance="10"
     gridtolerance="10"
     guidetolerance="10"
     inkscape:pageopacity="0"
     inkscape:pageshadow="2"
     inkscape:window-width="1364"
     inkscape:window-height="730"
     id="namedview8"
     showgrid="false"
     inkscape:zoom="0.10956742"
     inkscape:cx="658.53265"
     inkscape:cy="1076.9625"
     inkscape:window-x="0"
     inkscape:window-y="18"
     inkscape:window-maximized="0"
     inkscape:current-layer="svg6" />
  <!-- Original BoundingBox: -1.000000 -479.205566 1316.065308 1674.719482 -->
  <path
     style="color:#000000;font-style:normal;font-variant:normal;font-weight:normal;font-stretch:normal;font-size:medium;line-height:normal;font-family:sans-serif;font-variant-ligatures:normal;font-variant-position:normal;font-variant-caps:normal;font-variant-numeric:normal;font-variant-alternates:normal;font-feature-settings:normal;text-indent:0;text-align:start;text-decoration:none;text-decoration-line:none;text-decoration-style:solid;text-decoration-color:#000000;letter-spacing:normal;word-spacing:normal;text-transform:none;writing-mode:lr-tb;direction:ltr;text-orientation:mixed;dominant-baseline:auto;baseline-shift:baseline;text-anchor:start;white-space:normal;shape-padding:0;clip-rule:nonzero;display:inline;overflow:visible;visibility:visible;opacity:1;isolation:auto;mix-blend-mode:normal;color-interpolation:sRGB;color-interpolation-filters:linearRGB;solid-color:#000000;solid-opacity:1;vector-effect:none;fill:#000000;fill-opacity:1;fill-rule:nonzero;stroke:none;stroke-width:159.40202332;stroke-linecap:round;stroke-linejoin:round;stroke-miterlimit:10;stroke-dasharray:none;stroke-dashoffset:0;stroke-opacity:1;color-rendering:auto;image-rendering:auto;shape-rendering:auto;text-rendering:auto;enable-background:accumulate"
     d="M 653.42773 97.058594 C 416.02014 98.200896 196.26758 267.3537 196.26758 508.37305 A 79.708982 79.708982 0 1 0 355.66992 508.37305 C 355.66992 364.20022 492.12799 255.40728 658.02734 256.46094 C 746.13776 257.02054 829.44748 289.7509 888.31836 350.28516 C 949.64755 413.34715 978.00352 499.95145 962.69531 583.70898 C 940.313 706.17238 774.44191 837.45761 612.66797 951.28516 C 454.54663 1062.5425 294.98422 1206.2509 240.68164 1414.8164 C 224.83654 1475.6743 220.17773 1536.2626 220.17773 1594.2988 A 79.708982 79.708982 0 0 0 299.87891 1674 L 1035.1191 1674 A 79.708982 79.708982 0 1 0 1035.1191 1514.5977 L 383.98633 1514.5977 C 386.43454 1494.0624 389.95517 1474.1222 394.93945 1454.9785 C 434.22985 1304.0718 558.46587 1184.3301 704.39648 1081.6504 C 866.18348 967.81365 1079.2884 832.37189 1119.498 612.36719 C 1144.5304 475.40461 1097.8924 337.1436 1002.5918 239.15039 C 911.4948 145.47947 786.16051 97.869862 659.03906 97.0625 C 657.16762 97.050614 655.29709 97.049599 653.42773 97.058594 z "
     id="path2" />
</svg>
