<?xml version="1.0" encoding="UTF-8" standalone="no"?>
<!-- Created by MetaPost 1.9991 on 2017.02.13:1813 -->

<svg
   xmlns:dc="http://purl.org/dc/elements/1.1/"
   xmlns:cc="http://creativecommons.org/ns#"
   xmlns:rdf="http://www.w3.org/1999/02/22-rdf-syntax-ns#"
   xmlns:svg="http://www.w3.org/2000/svg"
   xmlns="http://www.w3.org/2000/svg"
   xmlns:sodipodi="http://sodipodi.sourceforge.net/DTD/sodipodi-0.dtd"
   xmlns:inkscape="http://www.inkscape.org/namespaces/inkscape"
   version="1.1"
   width="1317.065308"
   height="2153.925049"
   viewBox="0 0 1317.065308 2153.925049"
   id="svg6"
   sodipodi:docname="n_6.svg"
   inkscape:version="0.92.0 r">
  <metadata
     id="metadata12">
    <rdf:RDF>
      <cc:Work
         rdf:about="">
        <dc:format>image/svg+xml</dc:format>
        <dc:type
           rdf:resource="http://purl.org/dc/dcmitype/StillImage" />
      </cc:Work>
    </rdf:RDF>
  </metadata>
  <defs
     id="defs10" />
  <sodipodi:namedview
     pagecolor="#ffffff"
     bordercolor="#666666"
     borderopacity="1"
     objecttolerance="10"
     gridtolerance="10"
     guidetolerance="10"
     inkscape:pageopacity="0"
     inkscape:pageshadow="2"
     inkscape:window-width="1364"
     inkscape:window-height="730"
     id="namedview8"
     showgrid="false"
     inkscape:zoom="0.10956742"
     inkscape:cx="658.53265"
     inkscape:cy="1076.9625"
     inkscape:window-x="0"
     inkscape:window-y="18"
     inkscape:window-maximized="0"
     inkscape:current-layer="svg6" />
  <!-- Original BoundingBox: -1.000000 -479.205566 1316.065308 1674.719482 -->
  <path
     style="color:#000000;font-style:normal;font-variant:normal;font-weight:normal;font-stretch:normal;font-size:medium;line-height:normal;font-family:sans-serif;font-variant-ligatures:normal;font-variant-position:normal;font-variant-caps:normal;font-variant-numeric:normal;font-variant-alternates:normal;font-feature-settings:normal;text-indent:0;text-align:start;text-decoration:none;text-decoration-line:none;text-decoration-style:solid;text-decoration-color:#000000;letter-spacing:normal;word-spacing:normal;text-transform:none;writing-mode:lr-tb;direction:ltr;text-orientation:mixed;dominant-baseline:auto;baseline-shift:baseline;text-anchor:start;white-space:normal;shape-padding:0;clip-rule:nonzero;display:inline;overflow:visible;visibility:visible;opacity:1;isolation:auto;mix-blend-mode:normal;color-interpolation:sRGB;color-interpolation-filters:linearRGB;solid-color:#000000;solid-opacity:1;vector-effect:none;fill:#000000;fill-opacity:1;fill-rule:nonzero;stroke:none;stroke-width:159.40202332;stroke-linecap:round;stroke-linejoin:round;stroke-miterlimit:10;stroke-dasharray:none;stroke-dashoffset:0;stroke-opacity:1;color-rendering:auto;image-rendering:auto;shape-rendering:auto;text-rendering:auto;enable-background:accumulate"
     d="M 815.01172 119.13867 A 79.708982 79.708982 0 0 0 765.48633 136.25977 C 574.30092 282.69887 416.19402 467.86774 301.52344 679.63867 C 227.64996 816.06647 169.8332 967.91329 161.15625 1130.1758 C 159.34244 1152.6047 159.08845 1175.2389 160.44336 1197.9336 C 160.45036 1198.131 160.44231 1198.326 160.44922 1198.5234 C 164.17566 1307.2909 192.33648 1420.8205 265.05859 1514.3379 C 360.44412 1636.9993 509.4025 1697.0959 658.70508 1696.7715 C 807.71139 1696.4475 955.62964 1636.0783 1051.5781 1514.8828 C 1125.011 1422.1274 1155.9164 1307.8723 1156.6621 1196.3281 C 1157.4316 1081.2051 1126.1696 963.70419 1052.1875 867.83203 C 957.61412 745.27607 810.19751 679.02656 658.16211 679.73242 C 590.11915 680.04836 523.38225 693.82218 461.77734 719.60938 C 563.82961 542.53189 699.94599 387.24961 862.41406 262.80664 A 79.708982 79.708982 0 0 0 815.01172 119.13867 z M 658.90234 839.13281 C 764.33136 838.64333 863.45046 884.17054 925.99023 965.21484 C 974.59901 1028.2061 997.83558 1109.6983 997.26367 1195.2617 C 996.70995 1278.0919 973.80455 1356.3158 926.60156 1415.9395 C 864.33386 1494.5917 764.77094 1537.1378 658.35938 1537.3691 C 551.8077 1537.6007 452.18959 1495.3095 390.89258 1416.4844 C 344.63041 1356.9933 322.66749 1277.994 319.75781 1193.0664 C 319.14834 1175.2774 319.39067 1157.4879 320.33594 1139.7129 C 326.07385 1076.6949 350.10202 1016.3385 390.1582 966.37695 C 454.82129 885.72351 553.77377 839.62095 658.90234 839.13281 z "
     id="path2" />
</svg>
