<?xml version="1.0" encoding="UTF-8" standalone="no"?>
<!-- Created by MetaPost 1.9991 on 2017.02.13:1813 -->

<svg
   xmlns:dc="http://purl.org/dc/elements/1.1/"
   xmlns:cc="http://creativecommons.org/ns#"
   xmlns:rdf="http://www.w3.org/1999/02/22-rdf-syntax-ns#"
   xmlns:svg="http://www.w3.org/2000/svg"
   xmlns="http://www.w3.org/2000/svg"
   xmlns:sodipodi="http://sodipodi.sourceforge.net/DTD/sodipodi-0.dtd"
   xmlns:inkscape="http://www.inkscape.org/namespaces/inkscape"
   version="1.1"
   width="1317.065308"
   height="2153.925049"
   viewBox="0 0 1317.065308 2153.925049"
   id="svg6"
   sodipodi:docname="n_8.svg"
   inkscape:version="0.92.0 r">
  <metadata
     id="metadata12">
    <rdf:RDF>
      <cc:Work
         rdf:about="">
        <dc:format>image/svg+xml</dc:format>
        <dc:type
           rdf:resource="http://purl.org/dc/dcmitype/StillImage" />
      </cc:Work>
    </rdf:RDF>
  </metadata>
  <defs
     id="defs10" />
  <sodipodi:namedview
     pagecolor="#ffffff"
     bordercolor="#666666"
     borderopacity="1"
     objecttolerance="10"
     gridtolerance="10"
     guidetolerance="10"
     inkscape:pageopacity="0"
     inkscape:pageshadow="2"
     inkscape:window-width="1364"
     inkscape:window-height="730"
     id="namedview8"
     showgrid="false"
     inkscape:zoom="0.10956742"
     inkscape:cx="658.53265"
     inkscape:cy="1076.9625"
     inkscape:window-x="0"
     inkscape:window-y="18"
     inkscape:window-maximized="0"
     inkscape:current-layer="svg6" />
  <!-- Original BoundingBox: -1.000000 -479.205566 1316.065308 1674.719482 -->
  <path
     style="color:#000000;font-style:normal;font-variant:normal;font-weight:normal;font-stretch:normal;font-size:medium;line-height:normal;font-family:sans-serif;font-variant-ligatures:normal;font-variant-position:normal;font-variant-caps:normal;font-variant-numeric:normal;font-variant-alternates:normal;font-feature-settings:normal;text-indent:0;text-align:start;text-decoration:none;text-decoration-line:none;text-decoration-style:solid;text-decoration-color:#000000;letter-spacing:normal;word-spacing:normal;text-transform:none;writing-mode:lr-tb;direction:ltr;text-orientation:mixed;dominant-baseline:auto;baseline-shift:baseline;text-anchor:start;white-space:normal;shape-padding:0;clip-rule:nonzero;display:inline;overflow:visible;visibility:visible;opacity:1;isolation:auto;mix-blend-mode:normal;color-interpolation:sRGB;color-interpolation-filters:linearRGB;solid-color:#000000;solid-opacity:1;vector-effect:none;fill:#000000;fill-opacity:1;fill-rule:nonzero;stroke:none;stroke-width:159.40202332;stroke-linecap:round;stroke-linejoin:round;stroke-miterlimit:10;stroke-dasharray:none;stroke-dashoffset:0;stroke-opacity:1;color-rendering:auto;image-rendering:auto;shape-rendering:auto;text-rendering:auto;enable-background:accumulate"
     d="M 658.5332 97.060547 C 549.07677 97.060547 423.65776 116.39918 329.59961 206.22266 C 272.898 260.37145 237.0355 334.13297 232.27539 413.9668 C 225.10937 534.15119 283.54516 635.31567 360.30859 708.4668 C 399.76236 746.06396 444.2862 778.21843 490.50781 806.68359 C 431.23268 841.64529 373.77939 881.23451 323.09375 928.14258 C 234.8308 1009.8273 166.07213 1118.5576 160.4707 1252.2324 C 155.93101 1360.5693 197.76836 1463.6563 269.50977 1541.0957 C 371.93131 1651.6518 517.79528 1696.7715 658.5332 1696.7715 C 799.27114 1696.7715 945.13517 1651.6518 1047.5566 1541.0957 C 1119.298 1463.6563 1161.1332 1360.5712 1156.5938 1252.2344 C 1150.9922 1118.5576 1082.2356 1009.8273 993.97266 928.14258 C 943.28718 881.23466 885.83351 841.64521 826.55859 806.68359 C 872.77969 778.21865 917.3025 746.06357 956.75586 708.4668 C 1033.5193 635.31568 1091.957 534.15118 1084.791 413.9668 C 1080.0308 334.133 1044.1684 260.37144 987.4668 206.22266 C 893.40865 116.39917 767.98965 97.060547 658.5332 97.060547 z M 658.5332 256.46289 C 748.29226 256.46289 827.68516 274.04738 877.37695 321.50195 C 906.14216 348.97209 923.39925 385.34054 925.67188 423.45508 C 929.63999 490.00638 902.34938 540.12639 846.79102 593.07031 C 798.94678 638.66311 730.67724 680.64394 658.5332 717.97852 C 586.38864 680.64377 518.11993 638.6634 470.27539 593.07031 C 414.71702 540.12639 387.42639 490.00638 391.39453 423.45508 C 393.66712 385.34061 410.92229 348.9721 439.6875 321.50195 C 489.37929 274.04738 568.77416 256.46289 658.5332 256.46289 z M 658.53125 896.41211 C 743.96144 940.17477 825.57678 989.48746 885.70117 1045.1309 C 954.0224 1108.3602 993.79053 1174.3917 997.33203 1258.9062 C 999.97428 1321.9639 975.52036 1384.3024 930.62305 1432.7656 C 865.1984 1503.3865 765.3084 1537.3691 658.5332 1537.3691 C 551.75803 1537.3691 451.86805 1503.3865 386.44336 1432.7656 C 341.54604 1384.3024 317.09204 1321.9639 319.73438 1258.9062 C 323.27582 1174.3917 363.04206 1108.3601 431.36328 1045.1309 C 491.48735 989.48781 573.1016 940.17459 658.53125 896.41211 z "
     id="path2" />
</svg>
