<?xml version="1.0" encoding="UTF-8" standalone="no"?>
<!-- Created by MetaPost 1.9991 on 2017.02.13:1813 -->

<svg
   xmlns:dc="http://purl.org/dc/elements/1.1/"
   xmlns:cc="http://creativecommons.org/ns#"
   xmlns:rdf="http://www.w3.org/1999/02/22-rdf-syntax-ns#"
   xmlns:svg="http://www.w3.org/2000/svg"
   xmlns="http://www.w3.org/2000/svg"
   xmlns:sodipodi="http://sodipodi.sourceforge.net/DTD/sodipodi-0.dtd"
   xmlns:inkscape="http://www.inkscape.org/namespaces/inkscape"
   version="1.1"
   width="1317.065308"
   height="2153.925049"
   viewBox="0 0 1317.065308 2153.925049"
   id="svg10"
   sodipodi:docname="p_commercialat.svg"
   inkscape:version="0.92.0 r">
  <metadata
     id="metadata16">
    <rdf:RDF>
      <cc:Work
         rdf:about="">
        <dc:format>image/svg+xml</dc:format>
        <dc:type
           rdf:resource="http://purl.org/dc/dcmitype/StillImage" />
      </cc:Work>
    </rdf:RDF>
  </metadata>
  <defs
     id="defs14" />
  <sodipodi:namedview
     pagecolor="#ffffff"
     bordercolor="#666666"
     borderopacity="1"
     objecttolerance="10"
     gridtolerance="10"
     guidetolerance="10"
     inkscape:pageopacity="0"
     inkscape:pageshadow="2"
     inkscape:window-width="1364"
     inkscape:window-height="730"
     id="namedview12"
     showgrid="false"
     inkscape:zoom="0.10956742"
     inkscape:cx="658.53265"
     inkscape:cy="1076.9625"
     inkscape:window-x="0"
     inkscape:window-y="18"
     inkscape:window-maximized="0"
     inkscape:current-layer="svg10" />
  <!-- Original BoundingBox: -1.000000 -479.205566 1316.065308 1674.719482 -->
  <path
     style="color:#000000;font-style:normal;font-variant:normal;font-weight:normal;font-stretch:normal;font-size:medium;line-height:normal;font-family:sans-serif;font-variant-ligatures:normal;font-variant-position:normal;font-variant-caps:normal;font-variant-numeric:normal;font-variant-alternates:normal;font-feature-settings:normal;text-indent:0;text-align:start;text-decoration:none;text-decoration-line:none;text-decoration-style:solid;text-decoration-color:#000000;letter-spacing:normal;word-spacing:normal;text-transform:none;writing-mode:lr-tb;direction:ltr;text-orientation:mixed;dominant-baseline:auto;baseline-shift:baseline;text-anchor:start;white-space:normal;shape-padding:0;clip-rule:nonzero;display:inline;overflow:visible;visibility:visible;opacity:1;isolation:auto;mix-blend-mode:normal;color-interpolation:sRGB;color-interpolation-filters:linearRGB;solid-color:#000000;solid-opacity:1;vector-effect:none;fill:#000000;fill-opacity:1;fill-rule:nonzero;stroke:none;stroke-width:159.40202332;stroke-linecap:round;stroke-linejoin:round;stroke-miterlimit:10;stroke-dasharray:none;stroke-dashoffset:0;stroke-opacity:1;color-rendering:auto;image-rendering:auto;shape-rendering:auto;text-rendering:auto;enable-background:accumulate"
     d="M 681.7168 96.808594 C 673.34073 96.813894 665.10294 96.921155 657.02344 97.074219 C 592.90322 98.28892 522.6774 103.10295 452.15625 128.54688 C 254.52406 199.85223 132.88744 400.55399 161.125 608.75 A 79.708982 79.708982 0 1 0 319.08008 587.32617 C 300.81692 452.6716 378.4317 324.60631 506.25391 278.48828 C 550.28844 262.60069 602.52121 257.53696 660.04297 256.44727 C 717.73487 255.35431 767.46665 259.27615 805.21289 276.22461 C 874.30376 307.24712 921.46064 383.53311 950.68359 476.93945 C 991.20919 606.47339 997.26162 749.15356 997.26172 896.91602 L 997.26172 1485.3203 C 988.2117 1516.3204 960.45005 1537.3691 927.52344 1537.3691 C 894.59674 1537.3691 866.83515 1516.3204 857.78516 1485.3203 L 857.78516 1256.9941 L 857.78516 896.91602 A 79.708982 79.708982 0 0 0 699.28906 883.91211 C 646.10626 842.96394 581.05013 817.21484 509.09375 817.21484 C 388.35385 817.21484 287.02974 889.70618 228.6543 984.87109 C 176.08043 1070.578 160.40228 1166.9491 160.40234 1256.9941 C 160.40233 1347.0392 176.08048 1443.4103 228.6543 1529.1172 C 287.02975 1624.2821 388.3539 1696.7713 509.09375 1696.7715 C 599.01135 1696.7713 678.15354 1656.5626 736.81445 1596.7305 C 779.2466 1657.6777 849.82528 1696.7713 927.52344 1696.7715 C 1037.6087 1696.7713 1133.4144 1618.3031 1155.1016 1510.375 A 79.708982 79.708982 0 0 0 1156.6641 1494.6738 L 1156.6641 896.91602 C 1156.664 745.27395 1151.7843 585.8683 1102.8145 429.34375 C 1066.6016 313.59547 1000.3635 189.11602 870.50586 130.80859 C 805.72337 101.72058 740.34925 96.77127 681.7168 96.808594 z M 509.09375 976.61719 C 565.09924 976.61718 619.04456 1011.794 653.65625 1068.2188 C 685.42625 1120.0108 698.38277 1185.8251 698.38281 1256.9941 C 698.3828 1328.1631 685.42622 1393.9775 653.65625 1445.7695 C 619.04452 1502.1944 565.09931 1537.3691 509.09375 1537.3691 C 453.08808 1537.3691 399.14304 1502.1944 364.53125 1445.7695 C 332.76136 1393.9776 319.80468 1328.1631 319.80469 1256.9941 C 319.80463 1185.8252 332.76134 1120.0107 364.53125 1068.2188 C 399.14301 1011.7939 453.08825 976.61719 509.09375 976.61719 z "
     id="path2" />
</svg>
