<?xml version="1.0" encoding="UTF-8" standalone="no"?>
<!-- Created by MetaPost 1.9991 on 2017.02.13:1813 -->

<svg
   xmlns:dc="http://purl.org/dc/elements/1.1/"
   xmlns:cc="http://creativecommons.org/ns#"
   xmlns:rdf="http://www.w3.org/1999/02/22-rdf-syntax-ns#"
   xmlns:svg="http://www.w3.org/2000/svg"
   xmlns="http://www.w3.org/2000/svg"
   xmlns:sodipodi="http://sodipodi.sourceforge.net/DTD/sodipodi-0.dtd"
   xmlns:inkscape="http://www.inkscape.org/namespaces/inkscape"
   version="1.1"
   width="1317.065308"
   height="2153.925049"
   viewBox="0 0 1317.065308 2153.925049"
   id="svg6"
   sodipodi:docname="p_leftcurlybracket.svg"
   inkscape:version="0.92.0 r">
  <metadata
     id="metadata12">
    <rdf:RDF>
      <cc:Work
         rdf:about="">
        <dc:format>image/svg+xml</dc:format>
        <dc:type
           rdf:resource="http://purl.org/dc/dcmitype/StillImage" />
      </cc:Work>
    </rdf:RDF>
  </metadata>
  <defs
     id="defs10" />
  <sodipodi:namedview
     pagecolor="#ffffff"
     bordercolor="#666666"
     borderopacity="1"
     objecttolerance="10"
     gridtolerance="10"
     guidetolerance="10"
     inkscape:pageopacity="0"
     inkscape:pageshadow="2"
     inkscape:window-width="1364"
     inkscape:window-height="730"
     id="namedview8"
     showgrid="false"
     inkscape:zoom="0.10956742"
     inkscape:cx="658.53265"
     inkscape:cy="1076.9625"
     inkscape:window-x="0"
     inkscape:window-y="18"
     inkscape:window-maximized="0"
     inkscape:current-layer="svg6" />
  <!-- Original BoundingBox: -1.000000 -479.205566 1316.065308 1674.719482 -->
  <path
     style="color:#000000;font-style:normal;font-variant:normal;font-weight:normal;font-stretch:normal;font-size:medium;line-height:normal;font-family:sans-serif;font-variant-ligatures:normal;font-variant-position:normal;font-variant-caps:normal;font-variant-numeric:normal;font-variant-alternates:normal;font-feature-settings:normal;text-indent:0;text-align:start;text-decoration:none;text-decoration-line:none;text-decoration-style:solid;text-decoration-color:#000000;letter-spacing:normal;word-spacing:normal;text-transform:none;writing-mode:lr-tb;direction:ltr;text-orientation:mixed;dominant-baseline:auto;baseline-shift:baseline;text-anchor:start;white-space:normal;shape-padding:0;clip-rule:nonzero;display:inline;overflow:visible;visibility:visible;opacity:1;isolation:auto;mix-blend-mode:normal;color-interpolation:sRGB;color-interpolation-filters:linearRGB;solid-color:#000000;solid-opacity:1;vector-effect:none;fill:#000000;fill-opacity:1;fill-rule:nonzero;stroke:none;stroke-width:159.40202332;stroke-linecap:round;stroke-linejoin:round;stroke-miterlimit:10;stroke-dasharray:none;stroke-dashoffset:0;stroke-opacity:1;color-rendering:auto;image-rendering:auto;shape-rendering:auto;text-rendering:auto;enable-background:accumulate"
     d="M 897.63477 119.83203 C 802.65429 119.83203 684.59908 131.12314 600.45117 220.66992 C 508.66844 318.34136 513.32954 444.05723 515.78125 541.49805 C 518.23296 638.93886 517.22372 709.77959 478.25 755.63867 C 434.63377 806.96045 346.95331 817.21484 240.10352 817.21484 A 79.708982 79.708982 0 0 0 240.10352 976.61719 C 346.50053 976.61718 434.28731 987.27291 478.65234 1038.6621 C 512.04639 1077.3433 519.07786 1129.0847 520.63672 1204.2773 C 522.19558 1279.47 515.26562 1372.1368 555.32227 1466.1406 C 613.43215 1602.5116 753.16477 1686.3677 900.52734 1674 L 1076.9629 1674 A 79.708982 79.708982 0 1 0 1076.9629 1514.5977 L 897.63477 1514.5977 A 79.708982 79.708982 0 0 0 889.83203 1514.9805 C 809.29446 1522.9042 733.69079 1478.1034 701.9668 1403.6543 C 680.91583 1354.2525 681.71782 1283.6462 680.00391 1200.9746 C 678.29 1118.3031 671.04488 1017.5879 599.31055 934.49609 C 587.13785 920.39613 574.19934 907.99823 560.66211 897.08203 C 574.36727 885.96609 587.44283 873.30301 599.71289 858.86523 C 685.63663 757.7616 677.55458 633.73913 675.13281 537.48828 C 672.71104 441.23744 674.69676 374.43398 716.61328 329.82812 C 751.89281 292.28508 817.41978 279.23438 897.63477 279.23438 L 1076.9629 279.23438 A 79.708982 79.708982 0 1 0 1076.9629 119.83203 L 897.63477 119.83203 z "
     id="path2" />
</svg>
